{
  "project_info": {
    "project_number": "532865851621",
    "project_id": "bloc-photo-library-course-cloc",
    "storage_bucket": "bloc-photo-library-course-cloc.appspot.com"
  },
  "client": [
    {
      "client_info": {
        "mobilesdk_app_id": "1:532865851621:android:3f062950abca36e372b40c",
        "android_client_info": {
          "package_name": "se.pixolity.testingbloc_course_2"
        }
      },
      "oauth_client": [
        {
          "client_id": "532865851621-637g1ajm648c95ca85stfq8nr2qeaa9n.apps.googleusercontent.com",
          "client_type": 3
        }
      ],
      "api_key": [
        {
          "current_key": "AIzaSyBdGP2d5qjcyE_i1UVMg2TOpzK7kX-mv5E"
        }
      ],
      "services": {
        "appinvite_service": {
          "other_platform_oauth_client": [
            {
              "client_id": "532865851621-637g1ajm648c95ca85stfq8nr2qeaa9n.apps.googleusercontent.com",
              "client_type": 3
            },
            {
              "client_id": "532865851621-h2ur2ihlr4mq18pm8r5if9vn20ond72a.apps.googleusercontent.com",
              "client_type": 2,
              "ios_info": {
                "bundle_id": "se.pixolity.testingblocCourse2"
              }
            }
          ]
        }
      }
    }
  ],
  "configuration_version": "1"
}