[
 {
   "hospitalName": "Baguio General Hospital",
   "address": "Gov. Pack Road, Baguio City 2600 Benguet",
   "image": "https://media.philstar.com/photos/2021/04/04/lung_2021-04-04_22-01-44.jpg",
   "specialization": "General (Internal Medicine, Anesthesiology, Family Medicine, Dental, OB, Ophthalmology, ENT, Orthopedics, Pediatrics, Psychiatry, Surgery, Radiology and Pathology)",
   "price": 400
 },
 {
   "hospitalName": "BCU-Sto. Niño Jesus Medical Center Foundation, Inc.",
   "address": "#28 Lower P. Burgos St. Baguio City 2600",
   "image": "https://cdn-healthcare.hellohealthgroup.com/hospitals/ph/quirino-memorial-medical-center-120220211.png",
   "specialization": "General",
   "price": 2000
 },
 {
   "hospitalName": "Notre Dame De Chartres Hospital",
   "address": "#25 Gen. Luna Road, Baguio City",
   "image": "https://www.spchcm.com/hospitals/plugin/images/NDCH/banner.jpg",
   "specialization": "Dental medicine, Family medicine, Internal medicine, Neurosciences, Obstetrics and gynecology, Occupational medicine, Ophthalmology, Orthopedic surgery, Othorhinolaryngology, Pathology, Pediatrics, Physical med & rehab, Radiology, Surgery",
   "price": 5000
 },
 {
   "hospitalName": "Saint Louis University Hospital of Sacred Heart",
   "address": "Assumption Road, Baguio City 2600",
   "image": "https://live.staticflickr.com/4141/4849809284_756e62b248_b.jpg",
   "specialization": "Surgery",
   "price": 10000
 },
 {
   "hospitalName": "Gov. Roque B. Ablan Sr. Memrial. Hospital",
   "address": "P. Gomez St., Laoag City Ilocos Norte 2900",
   "image": "https://www.cnnphilippines.com/.imaging/mte/demo-cnn-new/750x450/dam/cnn/2020/3/27/Amang-Rodriguez-Memorial-Medical-Center_CNNPH.jpg/jcr:content/Amang-Rodriguez-Memorial-Medical-Center_CNNPH.jpg",
   "specialization": "Dental Services",
   "price": 400
 },
 {
   "hospitalName": "Mariano Marcos Memorial Hospital & Medical Center",
   "address": "#6 San Julian, Batac Ilocos Norte 2906",
   "image": "https://announcement.ph/wp-content/uploads/2020/12/eJSCXmw92Srmc.jpg",
   "specialization": "General (Anesthesiology, Internal medicine, Gynecology, Pediatrics, Newborn screening, Surgery, Ophthalmology, Otorhinolaryngology and head and neck surgery, Anesthesiology, Laboratory and clinical pathology, Radiology, Family medicine)",
   "price": 2000
 },
 {
   "hospitalName": "Gabriela Silang General Hospital",
   "address": "Tamag, Vigan City, 2700 Ilocos Sur",
   "image": "https://www.webbline.com/wp-content/uploads/2018/01/gabriela.jpg",
   "specialization": "General",
   "price": 5000
 },
 {
   "hospitalName": "Metro Vigan Coop. Hospital",
   "address": "Zone 6 Rizal Ave, Bantay, Ilocos Sur",
   "image": "https://lh3.googleusercontent.com/p/AF1QipNF0KGg7PbCA2KwoDfHWswEzkHMx63QREQhNXNh=s1600-w400",
   "specialization": "Surgery, Internal Medicine, Neurology, Orthopedic, Gynecology, Pediatric Health Care, Anesthesiology",
   "price": 10000
 },
 {
   "hospitalName": "Bethany Hospital, Inc.",
   "address": "Widdoes Street, San Fernando City 2400 La Union",
   "image": "https://media.philstar.com/photos/2021/04/04/lung_2021-04-04_22-01-44.jpg",
   "specialization": "Surgery",
   "price": 400
 },
 {
   "hospitalName": "Ilocos Training Regional & Medical Center",
   "address": "Parian, City of San Fernando 2400 La Union",
   "image": "https://www.spchcm.com/hospitals/plugin/images/NDCH/banner.jpg",
   "specialization": "Internal Medicine",
   "price": 2000
 },
 {
   "hospitalName": "La Union Medical Center",
   "address": "Nazareno, Agoo, 2504 La Union",
   "image": "https://media.philstar.com/photos/2021/04/04/lung_2021-04-04_22-01-44.jpg",
   "specialization": "Pediatrics, Anesthesiology, and surgery,",
   "price": 5000
 },
 {
   "hospitalName": "La Union Medical Diagnostic Center & Hospital, Inc.",
   "address": "Ancheta cor. Bucaneg Sts. San Fernando City 2400 La Union",
   "image": "https://cdn-healthcare.hellohealthgroup.com/hospitals/ph/quirino-memorial-medical-center-120220211.png",
   "specialization": "Ophthalmology",
   "price": 10000
 },
 {
   "hospitalName": "Lorma Medical Center",
   "address": "Carlatan, San Fernando City 2400 La Union",
   "image": "https://www.spchcm.com/hospitals/plugin/images/NDCH/banner.jpg",
   "specialization": "Anesthesiology",
   "price": 400
 },
 {
   "hospitalName": "Dagupan Doctors Villaflor Memorial Hospital, Inc.",
   "address": "Mayombo District, Dagupan City 2400 Pangasinan",
   "image": "https://live.staticflickr.com/4141/4849809284_756e62b248_b.jpg",
   "specialization": "General",
   "price": 2000
 },
 {
   "hospitalName": "Pangasinan Center for Family Medicine, Inc.",
   "address": "Tapuac District, Dagupan City 2400 Pangasinan",
   "image": "https://www.cnnphilippines.com/.imaging/mte/demo-cnn-new/750x450/dam/cnn/2020/3/27/Amang-Rodriguez-Memorial-Medical-Center_CNNPH.jpg/jcr:content/Amang-Rodriguez-Memorial-Medical-Center_CNNPH.jpg",
   "specialization": "General (Internal Medicine, Anesthesiology, Family Medicine, Dental, OB, Ophthalmology, ENT, Orthopedics, Pediatrics, Psychiatry, Surgery, Radiology and Pathology)",
   "price": 5000
 },
 {
   "hospitalName": "Pangasinan Medical Center, Inc.",
   "address": "Nable St., Dagupan City 2400 Pangasinan",
   "image": "https://announcement.ph/wp-content/uploads/2020/12/eJSCXmw92Srmc.jpg",
   "specialization": "General",
   "price": 10000
 },
 {
   "hospitalName": "Pangasinan Provincial Hospital",
   "address": "Bolingit, San Carlos City 2420 Pangasinan",
   "image": "https://www.webbline.com/wp-content/uploads/2018/01/gabriela.jpg",
   "specialization": "Dental medicine, Family medicine, Internal medicine, Neurosciences, Obstetrics and gynecology, Occupational medicine, Ophthalmology, Orthopedic surgery, Othorhinolaryngology, Pathology, Pediatrics, Physical med & rehab, Radiology, Surgery",
   "price": 400
 },
 {
   "hospitalName": "Region I Medical Center",
   "address": "Arellano St., Dagupan City Pangasinan",
   "image": "https://lh3.googleusercontent.com/p/AF1QipNF0KGg7PbCA2KwoDfHWswEzkHMx63QREQhNXNh=s1600-w400",
   "specialization": "Surgery",
   "price": 2000
 },
 {
   "hospitalName": "Specialists Group Hospital & Trauma Center",
   "address": "Tapuac District, Dagupan City Pangasinan 2400",
   "image": "https://media.philstar.com/photos/2021/04/04/lung_2021-04-04_22-01-44.jpg",
   "specialization": "Dental Services",
   "price": 5000
 },
 {
   "hospitalName": "Urdaneta Sacred Heart Hospital",
   "address": "Mac Arthur Highway San Vicente, Urdaneta City 2428 Pangasinan",
   "image": "https://www.spchcm.com/hospitals/plugin/images/NDCH/banner.jpg",
   "specialization": "General (Anesthesiology, Internal medicine, Gynecology, Pediatrics, Newborn screening, Surgery, Ophthalmology, Otorhinolaryngology and head and neck surgery, Anesthesiology, Laboratory and clinical pathology, Radiology, Family medicine)",
   "price": 10000
 },
 {
   "hospitalName": "Virgen Milagrosa Medical Center",
   "address": "Martin Posadas, San Carlos City 2420 Pangasinan",
   "image": "https://media.philstar.com/photos/2021/04/04/lung_2021-04-04_22-01-44.jpg",
   "specialization": "General",
   "price": 400
 },
 {
   "hospitalName": "Cagayan Valley Medical Center",
   "address": "Maharlika Hi-way Carig, Tuguegarao, Cagayan 3400",
   "image": "https://cdn-healthcare.hellohealthgroup.com/hospitals/ph/quirino-memorial-medical-center-120220211.png",
   "specialization": "Surgery, Internal Medicine, Neurology, Orthopedic, Gynecology, Pediatric Health Care, Anesthesiology",
   "price": 2000
 },
 {
   "hospitalName": "St. Paul Hospital of Tuguegarao",
   "address": "Ugac Highway Tuguegarao City, 3400 Cagayan",
   "image": "https://www.spchcm.com/hospitals/plugin/images/NDCH/banner.jpg",
   "specialization": "General (Internal Medicine, Anesthesiology, Family Medicine, Dental, OB, Ophthalmology, ENT, Orthopedics, Pediatrics, Psychiatry, Surgery, Radiology and Pathology)",
   "price": 5000
 },
 {
   "hospitalName": "Cagayan Valley Sanitarium & Hospital",
   "address": "Mabini, Santiago City, 3311 Isabela",
   "image": "https://live.staticflickr.com/4141/4849809284_756e62b248_b.jpg",
   "specialization": "General",
   "price": 10000
 },
 {
   "hospitalName": "De Vera's Medical Center",
   "address": "City Road, Calao East Santiago City, 3311 Isabela",
   "image": "https://www.cnnphilippines.com/.imaging/mte/demo-cnn-new/750x450/dam/cnn/2020/3/27/Amang-Rodriguez-Memorial-Medical-Center_CNNPH.jpg/jcr:content/Amang-Rodriguez-Memorial-Medical-Center_CNNPH.jpg",
   "specialization": "Dental medicine, Family medicine, Internal medicine, Neurosciences, Obstetrics and gynecology, Occupational medicine, Ophthalmology, Orthopedic surgery, Othorhinolaryngology, Pathology, Pediatrics, Physical med & rehab, Radiology, Surgery",
   "price": 400
 },
 {
   "hospitalName": "Veterans Regional Hospital",
   "address": "Bayombong, 3700 Nueva Vizcaya",
   "image": "https://announcement.ph/wp-content/uploads/2020/12/eJSCXmw92Srmc.jpg",
   "specialization": "Surgery",
   "price": 2000
 },
 {
   "hospitalName": "Quirino Provincial Hospital",
   "address": "San Marcos, Cabarroquis Quirino 3400",
   "image": "https://www.webbline.com/wp-content/uploads/2018/01/gabriela.jpg",
   "specialization": "Dental Services",
   "price": 5000
 },
 {
   "hospitalName": "Angeles Medical Center, Inc.",
   "address": "641 Rizal St., 2009 Angeles City",
   "image": "https://lh3.googleusercontent.com/p/AF1QipNF0KGg7PbCA2KwoDfHWswEzkHMx63QREQhNXNh=s1600-w400",
   "specialization": "General (Anesthesiology, Internal medicine, Gynecology, Pediatrics, Newborn screening, Surgery, Ophthalmology, Otorhinolaryngology and head and neck surgery, Anesthesiology, Laboratory and clinical pathology, Radiology, Family medicine)",
   "price": 10000
 },
 {
   "hospitalName": "Angeles University Foundation Medical Center",
   "address": "McArthur Highway, 2009 Angeles City",
   "image": "https://media.philstar.com/photos/2021/04/04/lung_2021-04-04_22-01-44.jpg",
   "specialization": "General",
   "price": 400
 },
 {
   "hospitalName": "Dr. Amando L. Garcia Medical Center, Inc.",
   "address": "#648 Rizal Street, 2009 Angeles City",
   "image": "https://www.spchcm.com/hospitals/plugin/images/NDCH/banner.jpg",
   "specialization": "Surgery, Internal Medicine, Neurology, Orthopedic, Gynecology, Pediatric Health Care, Anesthesiology",
   "price": 2000
 },
 {
   "hospitalName": "Philippine International Hospital",
   "address": "Angeles City",
   "image": "https://media.philstar.com/photos/2021/04/04/lung_2021-04-04_22-01-44.jpg",
   "specialization": "General (Internal Medicine, Anesthesiology, Family Medicine, Dental, OB, Ophthalmology, ENT, Orthopedics, Pediatrics, Psychiatry, Surgery, Radiology and Pathology)",
   "price": 5000
 },
 {
   "hospitalName": "St. Catherine of Alexandria Foundation and Medical Center",
   "address": "4163 Rizal Ext., 2009 Angeles City",
   "image": "https://cdn-healthcare.hellohealthgroup.com/hospitals/ph/quirino-memorial-medical-center-120220211.png",
   "specialization": "General",
   "price": 10000
 },
 {
   "hospitalName": "Bataan General Hospital (IPHO)",
   "address": "Tenejero, Balanga City, 2100 Bataan",
   "image": "https://www.spchcm.com/hospitals/plugin/images/NDCH/banner.jpg",
   "specialization": "Dental medicine, Family medicine, Internal medicine, Neurosciences, Obstetrics and gynecology, Occupational medicine, Ophthalmology, Orthopedic surgery, Othorhinolaryngology, Pathology, Pediatrics, Physical med & rehab, Radiology, Surgery",
   "price": 400
 },
 {
   "hospitalName": "Bulacan Provincial Hospital (IPHO)",
   "address": "Mojon, Malolos City, 3000 Bulacan",
   "image": "https://live.staticflickr.com/4141/4849809284_756e62b248_b.jpg",
   "specialization": "Surgery",
   "price": 2000
 },
 {
   "hospitalName": "Our Lady of Mercy General Hospital",
   "address": "Doña Remedios Trinidad Highway Brgy. Longos, Pulilan, Bulacan",
   "image": "https://www.cnnphilippines.com/.imaging/mte/demo-cnn-new/750x450/dam/cnn/2020/3/27/Amang-Rodriguez-Memorial-Medical-Center_CNNPH.jpg/jcr:content/Amang-Rodriguez-Memorial-Medical-Center_CNNPH.jpg",
   "specialization": "Dental Services",
   "price": 5000
 },
 {
   "hospitalName": "St. Paul Hospital Bulacan, Inc.",
   "address": "187 Binang II, Bocaue Bulacan 3018",
   "image": "https://announcement.ph/wp-content/uploads/2020/12/eJSCXmw92Srmc.jpg",
   "specialization": "General (Anesthesiology, Internal medicine, Gynecology, Pediatrics, Newborn screening, Surgery, Ophthalmology, Otorhinolaryngology and head and neck surgery, Anesthesiology, Laboratory and clinical pathology, Radiology, Family medicine)",
   "price": 10000
 },
 {
   "hospitalName": "Sta. Clara De Montefalco Medical Center, Inc.",
   "address": "Km. 20 North Diversion Service Road, Malhacan Meycauayan, 3020 Bulacan",
   "image": "https://www.webbline.com/wp-content/uploads/2018/01/gabriela.jpg",
   "specialization": "General",
   "price": 400
 },
 {
   "hospitalName": "Dr. Paulino J. Garcia Memorial Research & Medical Center",
   "address": "Mabini St., Cabanatuan City 3100 Nueva Ecija",
   "image": "https://lh3.googleusercontent.com/p/AF1QipNF0KGg7PbCA2KwoDfHWswEzkHMx63QREQhNXNh=s1600-w400",
   "specialization": "Surgery, Internal Medicine, Neurology, Orthopedic, Gynecology, Pediatric Health Care, Anesthesiology",
   "price": 2000
 },
 {
   "hospitalName": "Nueva Ecija Good Samaritan General Hospital, Inc.",
   "address": "Burgos Avenue, Cabanatuan City\n3100 Nueva Ecija",
   "image": "https://media.philstar.com/photos/2021/04/04/lung_2021-04-04_22-01-44.jpg",
   "specialization": "Surgery",
   "price": 5000
 },
 {
   "hospitalName": "N.E. Good Samaritan General Hospital, Inc.",
   "address": "Bucana, Gapan, Nueva Ecija",
   "image": "https://www.spchcm.com/hospitals/plugin/images/NDCH/banner.jpg",
   "specialization": "Internal Medicine",
   "price": 10000
 },
 {
   "hospitalName": "Nueva Ecija Doctor's Hospital, Inc.",
   "address": "Maharlika Highway Cabanatuan City Nueva Ecija 3100",
   "image": "https://media.philstar.com/photos/2021/04/04/lung_2021-04-04_22-01-44.jpg",
   "specialization": "Pediatrics, Anesthesiology, and surgery,",
   "price": 400
 },
 {
   "hospitalName": "Premiere General Hospital of Nueva Ecija",
   "address": "Maharlika Highway, Daan Sarile Cabanatuan City 3100 Nueva Ecija",
   "image": "https://cdn-healthcare.hellohealthgroup.com/hospitals/ph/quirino-memorial-medical-center-120220211.png",
   "specialization": "Ophthalmology",
   "price": 2000
 },
 {
   "hospitalName": "San Jose City General Hospital",
   "address": "Malasin, San Jose City 3121 Nueva Ecija",
   "image": "https://www.spchcm.com/hospitals/plugin/images/NDCH/banner.jpg",
   "specialization": "General (Internal Medicine, Anesthesiology, Family Medicine, Dental, OB, Ophthalmology, ENT, Orthopedics, Pediatrics, Psychiatry, Surgery, Radiology and Pathology)",
   "price": 5000
 },
 {
   "hospitalName": "James L. Gordon Memorial Hospital",
   "address": "1 Perimeter Road, New Asinan Olongapo City, 2002 Zambales",
   "image": "https://live.staticflickr.com/4141/4849809284_756e62b248_b.jpg",
   "specialization": "General",
   "price": 10000
 },
 {
   "hospitalName": "Pres. Ramon Magsaysay",
   "address": "Memorial Hospital (IPHO) Palanginan, Iba, Zambales 2201",
   "image": "https://www.cnnphilippines.com/.imaging/mte/demo-cnn-new/750x450/dam/cnn/2020/3/27/Amang-Rodriguez-Memorial-Medical-Center_CNNPH.jpg/jcr:content/Amang-Rodriguez-Memorial-Medical-Center_CNNPH.jpg",
   "specialization": "Dental medicine, Family medicine, Internal medicine, Neurosciences, Obstetrics and gynecology, Occupational medicine, Ophthalmology, Orthopedic surgery, Othorhinolaryngology, Pathology, Pediatrics, Physical med & rehab, Radiology, Surgery",
   "price": 400
 },
 {
   "hospitalName": "Subic Bay Medical Center",
   "address": "Building 3000, Upper Cubi Point Subic Bay, Freeport Zone 2200 Olongapo City",
   "image": "https://announcement.ph/wp-content/uploads/2020/12/eJSCXmw92Srmc.jpg",
   "specialization": "Surgery",
   "price": 2000
 },
 {
   "hospitalName": "Dee Hwa Liong Foundation Medical Center",
   "address": "Sapang Maisac, Duquit Mabalacat, Pampanga",
   "image": "https://www.webbline.com/wp-content/uploads/2018/01/gabriela.jpg",
   "specialization": "Dental Services",
   "price": 5000
 },
 {
   "hospitalName": "Jose B. Lingad Memorial Hospital",
   "address": "Brgy. Dolores, San Fernando 2000 Pampanga",
   "image": "https://lh3.googleusercontent.com/p/AF1QipNF0KGg7PbCA2KwoDfHWswEzkHMx63QREQhNXNh=s1600-w400",
   "specialization": "General (Anesthesiology, Internal medicine, Gynecology, Pediatrics, Newborn screening, Surgery, Ophthalmology, Otorhinolaryngology and head and neck surgery, Anesthesiology, Laboratory and clinical pathology, Radiology, Family medicine)",
   "price": 10000
 },
 {
   "hospitalName": "Mother Theresa of Calcutta Medical Center",
   "address": "Brgy. Maimpis, City of San Fernando, Pampanga",
   "image": "https://media.philstar.com/photos/2021/04/04/lung_2021-04-04_22-01-44.jpg",
   "specialization": "General",
   "price": 400
 },
 {
   "hospitalName": "Our Lady of Mount Carmel Med. Ctr.",
   "address": "Km. 78 McArthur Highway Brgy. Saguin, San Fernando City 2000 Pampanga",
   "image": "https://www.spchcm.com/hospitals/plugin/images/NDCH/banner.jpg",
   "specialization": "Surgery, Internal Medicine, Neurology, Orthopedic, Gynecology, Pediatric Health Care, Anesthesiology",
   "price": 2000
 },
 {
   "hospitalName": "San Fernandino Hospital",
   "address": "Bo. Dolores, San Fernando 2000 Pampanga",
   "image": "https://media.philstar.com/photos/2021/04/04/lung_2021-04-04_22-01-44.jpg",
   "specialization": "Surgery",
   "price": 5000
 },
 {
   "hospitalName": "St. Raphael Foundation and Medical Center",
   "address": "Dau, Mabalacat, Pampanga",
   "image": "https://cdn-healthcare.hellohealthgroup.com/hospitals/ph/quirino-memorial-medical-center-120220211.png",
   "specialization": "Internal Medicine",
   "price": 10000
 },
 {
   "hospitalName": "V. L. Makabali Memorial Hospital, Inc",
   "address": "B. Mendoza St. City of San Fernando 2000 Pampanga",
   "image": "https://www.spchcm.com/hospitals/plugin/images/NDCH/banner.jpg",
   "specialization": "Pediatrics, Anesthesiology, and surgery,",
   "price": 400
 },
 {
   "hospitalName": "Central Luzon Doctors' Hospital",
   "address": "Hospital Drive, San Vicente 2300 Tarlac City",
   "image": "https://live.staticflickr.com/4141/4849809284_756e62b248_b.jpg",
   "specialization": "General (Internal Medicine, Anesthesiology, Family Medicine, Dental, OB, Ophthalmology, ENT, Orthopedics, Pediatrics, Psychiatry, Surgery, Radiology and Pathology)",
   "price": 2000
 },
 {
   "hospitalName": "Jecsons Medical Center",
   "address": "McArthur Highway, San Nicolas Tarlac City, 2300 Tarlac",
   "image": "https://www.cnnphilippines.com/.imaging/mte/demo-cnn-new/750x450/dam/cnn/2020/3/27/Amang-Rodriguez-Memorial-Medical-Center_CNNPH.jpg/jcr:content/Amang-Rodriguez-Memorial-Medical-Center_CNNPH.jpg",
   "specialization": "General",
   "price": 5000
 },
 {
   "hospitalName": "Ramos General Hospital",
   "address": "#769 P. Hilario St., Tarlac City 2300 Tarlac",
   "image": "https://announcement.ph/wp-content/uploads/2020/12/eJSCXmw92Srmc.jpg",
   "specialization": "Dental medicine, Family medicine, Internal medicine, Neurosciences, Obstetrics and gynecology, Occupational medicine, Ophthalmology, Orthopedic surgery, Othorhinolaryngology, Pathology, Pediatrics, Physical med & rehab, Radiology, Surgery",
   "price": 10000
 },
 {
   "hospitalName": "Talon General Hospital",
   "address": "F. Tanedo St., Tarlac City 2300 Tarlac",
   "image": "https://www.webbline.com/wp-content/uploads/2018/01/gabriela.jpg",
   "specialization": "Surgery",
   "price": 400
 },
 {
   "hospitalName": "Tarlac Provincial Hospital (IPHO)",
   "address": "Tarlac, 2300 Tarlac",
   "image": "https://lh3.googleusercontent.com/p/AF1QipNF0KGg7PbCA2KwoDfHWswEzkHMx63QREQhNXNh=s1600-w400",
   "specialization": "Dental Services",
   "price": 2000
 },
 {
   "hospitalName": "Batangas Healthcare Hospital",
   "address": "Brgy. Gulod Itaas, 4200 Batangas City",
   "image": "https://media.philstar.com/photos/2021/04/04/lung_2021-04-04_22-01-44.jpg",
   "specialization": "General (Anesthesiology, Internal medicine, Gynecology, Pediatrics, Newborn screening, Surgery, Ophthalmology, Otorhinolaryngology and head and neck surgery, Anesthesiology, Laboratory and clinical pathology, Radiology, Family medicine)",
   "price": 5000
 },
 {
   "hospitalName": "Batangas Regional Hospital",
   "address": "Kumintang Ibaba 4200 Batangas City",
   "image": "https://www.spchcm.com/hospitals/plugin/images/NDCH/banner.jpg",
   "specialization": "General",
   "price": 10000
 },
 {
   "hospitalName": "Bauan Doctors General Hospital",
   "address": "Poblacion I, Bauan, Batangas",
   "image": "https://media.philstar.com/photos/2021/04/04/lung_2021-04-04_22-01-44.jpg",
   "specialization": "General (Internal Medicine, Anesthesiology, Family Medicine, Dental, OB, Ophthalmology, ENT, Orthopedics, Pediatrics, Psychiatry, Surgery, Radiology and Pathology)",
   "price": 400
 },
 {
   "hospitalName": "Golden Gate General Hospital",
   "address": "#17 P. Prieto St., 4200 Batangas City",
   "image": "https://cdn-healthcare.hellohealthgroup.com/hospitals/ph/quirino-memorial-medical-center-120220211.png",
   "specialization": "General",
   "price": 2000
 },
 {
   "hospitalName": "Daniel O. Mercado Medical Center",
   "address": "01 Pres. Laurel Highway Tanauan, 4232 Batangas",
   "image": "https://www.spchcm.com/hospitals/plugin/images/NDCH/banner.jpg",
   "specialization": "Dental medicine, Family medicine, Internal medicine, Neurosciences, Obstetrics and gynecology, Occupational medicine, Ophthalmology, Orthopedic surgery, Othorhinolaryngology, Pathology, Pediatrics, Physical med & rehab, Radiology, Surgery",
   "price": 5000
 },
 {
   "hospitalName": "Lemery Doctors' Medical Center",
   "address": "R. Diokno St., Lemery 4209 Batangas",
   "image": "https://live.staticflickr.com/4141/4849809284_756e62b248_b.jpg",
   "specialization": "Surgery",
   "price": 10000
 },
 {
   "hospitalName": "Lipa City District Hospital",
   "address": "Lipa City, 4217 Batangas",
   "image": "https://www.cnnphilippines.com/.imaging/mte/demo-cnn-new/750x450/dam/cnn/2020/3/27/Amang-Rodriguez-Memorial-Medical-Center_CNNPH.jpg/jcr:content/Amang-Rodriguez-Memorial-Medical-Center_CNNPH.jpg",
   "specialization": "Dental Services",
   "price": 400
 },
 {
   "hospitalName": "Lipa Medix Medical Center",
   "address": "National Highway, Balintawak Lipa City, Batangas 4217",
   "image": "https://announcement.ph/wp-content/uploads/2020/12/eJSCXmw92Srmc.jpg",
   "specialization": "General (Anesthesiology, Internal medicine, Gynecology, Pediatrics, Newborn screening, Surgery, Ophthalmology, Otorhinolaryngology and head and neck surgery, Anesthesiology, Laboratory and clinical pathology, Radiology, Family medicine)",
   "price": 2000
 },
 {
   "hospitalName": "Mary Mediatrix Medical Center",
   "address": "J.P. Laurel Highway Lipa City, 4217 Batangas",
   "image": "https://www.webbline.com/wp-content/uploads/2018/01/gabriela.jpg",
   "specialization": "General",
   "price": 5000
 },
 {
   "hospitalName": "Metro Lemery Medical Center (Operated by: St. Thomas Aquinas Hosp. Corp.)",
   "address": "Palanas, Lemery, Batangas",
   "image": "https://lh3.googleusercontent.com/p/AF1QipNF0KGg7PbCA2KwoDfHWswEzkHMx63QREQhNXNh=s1600-w400",
   "specialization": "Surgery, Internal Medicine, Neurology, Orthopedic, Gynecology, Pediatric Health Care, Anesthesiology",
   "price": 10000
 },
 {
   "hospitalName": "Metro Lipa Medical Center",
   "address": "JP Laurel Hi-way, Lipa City, Batangas",
   "image": "https://media.philstar.com/photos/2021/04/04/lung_2021-04-04_22-01-44.jpg",
   "specialization": "Surgery",
   "price": 400
 },
 {
   "hospitalName": "N.L. Villa Memorial Medical Center",
   "address": "F. Manalo St.,Lipa City 4217 Batangas",
   "image": "https://www.spchcm.com/hospitals/plugin/images/NDCH/banner.jpg",
   "specialization": "Internal Medicine",
   "price": 2000
 },
 {
   "hospitalName": "Our Lady of Caysasay Hospital",
   "address": "V. Ilustre St., Lemery, 4209 Batangas",
   "image": "https://media.philstar.com/photos/2021/04/04/lung_2021-04-04_22-01-44.jpg",
   "specialization": "General (Internal Medicine, Anesthesiology, Family Medicine, Dental, OB, Ophthalmology, ENT, Orthopedics, Pediatrics, Psychiatry, Surgery, Radiology and Pathology)",
   "price": 5000
 },
 {
   "hospitalName": "Saint Patrick's Hospital Medical Center",
   "address": "Lopez Jaena St., 4200 Batangas City",
   "image": "https://cdn-healthcare.hellohealthgroup.com/hospitals/ph/quirino-memorial-medical-center-120220211.png",
   "specialization": "General",
   "price": 10000
 },
 {
   "hospitalName": "St. Frances Cabrini Medical Center",
   "address": "Poblacion II, Maharlika Highway Sto. Tomas, 4234 Batangas",
   "image": "https://www.spchcm.com/hospitals/plugin/images/NDCH/banner.jpg",
   "specialization": "Dental medicine, Family medicine, Internal medicine, Neurosciences, Obstetrics and gynecology, Occupational medicine, Ophthalmology, Orthopedic surgery, Othorhinolaryngology, Pathology, Pediatrics, Physical med & rehab, Radiology, Surgery",
   "price": 400
 },
 {
   "hospitalName": "Bautista Hospital",
   "address": "375 P. Burgos Avenue, Caridad 4100 Cavite City",
   "image": "https://live.staticflickr.com/4141/4849809284_756e62b248_b.jpg",
   "specialization": "Surgery",
   "price": 2000
 },
 {
   "hospitalName": "Cavite Medical Center, Inc.",
   "address": "Dalahican, 4100 Cavite City",
   "image": "https://www.cnnphilippines.com/.imaging/mte/demo-cnn-new/750x450/dam/cnn/2020/3/27/Amang-Rodriguez-Memorial-Medical-Center_CNNPH.jpg/jcr:content/Amang-Rodriguez-Memorial-Medical-Center_CNNPH.jpg",
   "specialization": "Dental Services",
   "price": 5000
 },
 {
   "hospitalName": "Dela Salle University Medical Center",
   "address": "Congressional Road Dasmariñas, Cavite 4114",
   "image": "https://announcement.ph/wp-content/uploads/2020/12/eJSCXmw92Srmc.jpg",
   "specialization": "General (Anesthesiology, Internal medicine, Gynecology, Pediatrics, Newborn screening, Surgery, Ophthalmology, Otorhinolaryngology and head and neck surgery, Anesthesiology, Laboratory and clinical pathology, Radiology, Family medicine)",
   "price": 10000
 },
 {
   "hospitalName": "Dr. Jose P. Rizal Hospital & National Medical Research Center",
   "address": "Congressional Road, Dasmariñas Bagong Bayan, 4115 Cavite",
   "image": "https://www.webbline.com/wp-content/uploads/2018/01/gabriela.jpg",
   "specialization": "General",
   "price": 400
 },
 {
   "hospitalName": "Gen. Emilio Aguinaldo Memorial Hospital",
   "address": "Luciano, Trece Martirez City 4109 Cavite",
   "image": "https://lh3.googleusercontent.com/p/AF1QipNF0KGg7PbCA2KwoDfHWswEzkHMx63QREQhNXNh=s1600-w400",
   "specialization": "Surgery, Internal Medicine, Neurology, Orthopedic, Gynecology, Pediatric Health Care, Anesthesiology",
   "price": 2000
 },
 {
   "hospitalName": "Medical Center Imus",
   "address": "Diversion Road, Palico IV Imus, Cavite",
   "image": "https://media.philstar.com/photos/2021/04/04/lung_2021-04-04_22-01-44.jpg",
   "specialization": "Surgery",
   "price": 5000
 },
 {
   "hospitalName": "Metro South Medical Center",
   "address": "National Road, Molino IV Bacoor, 4102 Cavite",
   "image": "https://www.spchcm.com/hospitals/plugin/images/NDCH/banner.jpg",
   "specialization": "Internal Medicine",
   "price": 10000
 },
 {
   "hospitalName": "Ospital ng Tagaytay",
   "address": "Bacolod St., Kaybagal South Tagaytay City, 4120 Cavite",
   "image": "https://media.philstar.com/photos/2021/04/04/lung_2021-04-04_22-01-44.jpg",
   "specialization": "Pediatrics, Anesthesiology, and surgery,",
   "price": 400
 },
 {
   "hospitalName": "Our Lady of the Pillar Medical Center",
   "address": "Tamsui Avenue, Bayanluma Imus, Cavite",
   "image": "https://cdn-healthcare.hellohealthgroup.com/hospitals/ph/quirino-memorial-medical-center-120220211.png",
   "specialization": "General (Internal Medicine, Anesthesiology, Family Medicine, Dental, OB, Ophthalmology, ENT, Orthopedics, Pediatrics, Psychiatry, Surgery, Radiology and Pathology)",
   "price": 2000
 },
 {
   "hospitalName": "Saint Dominic Medical Center, Inc.",
   "address": "Gen. Aguinaldo Highway Bacoor, 4102 Cavite",
   "image": "https://www.spchcm.com/hospitals/plugin/images/NDCH/banner.jpg",
   "specialization": "General",
   "price": 5000
 },
 {
   "hospitalName": "Biñan Doctor's Hospital, Inc.",
   "address": "Platero, Biñan, 4024 Laguna",
   "image": "https://live.staticflickr.com/4141/4849809284_756e62b248_b.jpg",
   "specialization": "Dental medicine, Family medicine, Internal medicine, Neurosciences, Obstetrics and gynecology, Occupational medicine, Ophthalmology, Orthopedic surgery, Othorhinolaryngology, Pathology, Pediatrics, Physical med & rehab, Radiology, Surgery",
   "price": 10000
 },
 {
   "hospitalName": "Calamba Doctors' Hospital",
   "address": "Km. 49 National Highway Parian, Calamba, 4027 Laguna",
   "image": "https://www.cnnphilippines.com/.imaging/mte/demo-cnn-new/750x450/dam/cnn/2020/3/27/Amang-Rodriguez-Memorial-Medical-Center_CNNPH.jpg/jcr:content/Amang-Rodriguez-Memorial-Medical-Center_CNNPH.jpg",
   "specialization": "Surgery",
   "price": 400
 },
 {
   "hospitalName": "Calamba Medical Center",
   "address": "Crossing, Brgy. Real Calamba City, Laguna",
   "image": "https://announcement.ph/wp-content/uploads/2020/12/eJSCXmw92Srmc.jpg",
   "specialization": "Dental Services",
   "price": 2000
 },
 {
   "hospitalName": "Community General Hospital of San Pablo City, Inc.",
   "address": "Colag Avenue, San Pablo City 5000 Laguna",
   "image": "https://www.webbline.com/wp-content/uploads/2018/01/gabriela.jpg",
   "specialization": "General (Anesthesiology, Internal medicine, Gynecology, Pediatrics, Newborn screening, Surgery, Ophthalmology, Otorhinolaryngology and head and neck surgery, Anesthesiology, Laboratory and clinical pathology, Radiology, Family medicine)",
   "price": 5000
 },
 {
   "hospitalName": "Laguna Provincial Hospital (IPHO)",
   "address": "Sta. Cruz, 4009 Laguna",
   "image": "https://lh3.googleusercontent.com/p/AF1QipNF0KGg7PbCA2KwoDfHWswEzkHMx63QREQhNXNh=s1600-w400",
   "specialization": "General",
   "price": 10000
 },
 {
   "hospitalName": "Panlalawigang Pagamutan ng Laguna San Pablo (PPL)",
   "address": "Gen. Luna St., San Pablo City 5000 Laguna",
   "image": "https://media.philstar.com/photos/2021/04/04/lung_2021-04-04_22-01-44.jpg",
   "specialization": "Surgery, Internal Medicine, Neurology, Orthopedic, Gynecology, Pediatric Health Care, Anesthesiology",
   "price": 400
 },
 {
   "hospitalName": "San Pablo Colleges Medical Center",
   "address": "Maharlika Highway Brgy. San Rafael, San Pablo City 5000 Laguna",
   "image": "https://www.spchcm.com/hospitals/plugin/images/NDCH/banner.jpg",
   "specialization": "Surgery",
   "price": 2000
 },
 {
   "hospitalName": "San Pablo Doctors Hospital",
   "address": "55 A. Mabini St. San Pablo City, 5000 Laguna",
   "image": "https://media.philstar.com/photos/2021/04/04/lung_2021-04-04_22-01-44.jpg",
   "specialization": "Internal Medicine",
   "price": 5000
 },
 {
   "hospitalName": "St. James Hospital",
   "address": "Mariquita Pueblo, Dita Sta. Rosa, 4026 Laguna",
   "image": "https://cdn-healthcare.hellohealthgroup.com/hospitals/ph/quirino-memorial-medical-center-120220211.png",
   "specialization": "General (Internal Medicine, Anesthesiology, Family Medicine, Dental, OB, Ophthalmology, ENT, Orthopedics, Pediatrics, Psychiatry, Surgery, Radiology and Pathology)",
   "price": 10000
 },
 {
   "hospitalName": "UPH-Dr. Jose G. Tamayo Medical Center",
   "address": "Sto. Niño, Biñan, 4024 Laguna",
   "image": "https://www.spchcm.com/hospitals/plugin/images/NDCH/banner.jpg",
   "specialization": "General",
   "price": 400
 },
 {
   "hospitalName": "Lucena MMG General Hospital",
   "address": "Maharlika Highway Ibabang Dupay, Lucena City",
   "image": "https://live.staticflickr.com/4141/4849809284_756e62b248_b.jpg",
   "specialization": "Dental medicine, Family medicine, Internal medicine, Neurosciences, Obstetrics and gynecology, Occupational medicine, Ophthalmology, Orthopedic surgery, Othorhinolaryngology, Pathology, Pediatrics, Physical med & rehab, Radiology, Surgery",
   "price": 2000
 },
 {
   "hospitalName": "Lucena United Doctors Hospital",
   "address": "178 Merchan St., Lucena City 4301 Quezon",
   "image": "https://www.cnnphilippines.com/.imaging/mte/demo-cnn-new/750x450/dam/cnn/2020/3/27/Amang-Rodriguez-Memorial-Medical-Center_CNNPH.jpg/jcr:content/Amang-Rodriguez-Memorial-Medical-Center_CNNPH.jpg",
   "specialization": "Surgery",
   "price": 5000
 },
 {
   "hospitalName": "Mount Carmel Diocesan General Hospital",
   "address": "Allarey Ext., Lucena City, Quezon",
   "image": "https://announcement.ph/wp-content/uploads/2020/12/eJSCXmw92Srmc.jpg",
   "specialization": "Dental Services",
   "price": 10000
 },
 {
   "hospitalName": "Quezon Medical Center",
   "address": "Lucena City, Quezon 4301",
   "image": "https://www.webbline.com/wp-content/uploads/2018/01/gabriela.jpg",
   "specialization": "General (Anesthesiology, Internal medicine, Gynecology, Pediatrics, Newborn screening, Surgery, Ophthalmology, Otorhinolaryngology and head and neck surgery, Anesthesiology, Laboratory and clinical pathology, Radiology, Family medicine)",
   "price": 400
 },
 {
   "hospitalName": "St. Anne General Hospital, Inc.",
   "address": "51 Gomez St., Lucena City 4301 Quezon",
   "image": "https://lh3.googleusercontent.com/p/AF1QipNF0KGg7PbCA2KwoDfHWswEzkHMx63QREQhNXNh=s1600-w400",
   "specialization": "General",
   "price": 2000
 },
 {
   "hospitalName": "Tayabas Community Hospital, Inc.",
   "address": "Tayabas, 4327 Quezon",
   "image": "https://media.philstar.com/photos/2021/04/04/lung_2021-04-04_22-01-44.jpg",
   "specialization": "Surgery, Internal Medicine, Neurology, Orthopedic, Gynecology, Pediatric Health Care, Anesthesiology",
   "price": 5000
 },
 {
   "hospitalName": "Col. Salvador T. Villa Memorial Hosp.",
   "address": "109 Caimito Road, 1400 Caloocan City",
   "image": "https://www.spchcm.com/hospitals/plugin/images/NDCH/banner.jpg",
   "specialization": "Surgery",
   "price": 10000
 },
 {
   "hospitalName": "Dr. Jose N. Rodriguez Memorial. Hosp.",
   "address": "Administration Site 1400 Caloocan City",
   "image": "https://media.philstar.com/photos/2021/04/04/lung_2021-04-04_22-01-44.jpg",
   "specialization": "Internal Medicine",
   "price": 400
 },
 {
   "hospitalName": "MCU-F.D. Tanchoco Medical Foundation Hospital",
   "address": "Samson Road cor. EDSA 1400 Caloocan City",
   "image": "https://cdn-healthcare.hellohealthgroup.com/hospitals/ph/quirino-memorial-medical-center-120220211.png",
   "specialization": "Pediatrics, Anesthesiology, and surgery,",
   "price": 2000
 },
 {
   "hospitalName": "Las Piñas City Medical Center",
   "address": "#1314 Marcos Alvarez Talon V, Las Piñas City",
   "image": "https://www.spchcm.com/hospitals/plugin/images/NDCH/banner.jpg",
   "specialization": "General (Internal Medicine, Anesthesiology, Family Medicine, Dental, OB, Ophthalmology, ENT, Orthopedics, Pediatrics, Psychiatry, Surgery, Radiology and Pathology)",
   "price": 5000
 },
 {
   "hospitalName": "Las Piñas Doctors Hospital, Inc.",
   "address": "8009 J.I. Aguilar Avenue Pulang Lupa II, 1750 Las Piñas City",
   "image": "https://live.staticflickr.com/4141/4849809284_756e62b248_b.jpg",
   "specialization": "General",
   "price": 10000
 },
 {
   "hospitalName": "University of Perpetual Help/ Rizal Medical Center",
   "address": "Alabang-Zapote Road Pamplona, 1701 Las Piñas City",
   "image": "https://www.cnnphilippines.com/.imaging/mte/demo-cnn-new/750x450/dam/cnn/2020/3/27/Amang-Rodriguez-Memorial-Medical-Center_CNNPH.jpg/jcr:content/Amang-Rodriguez-Memorial-Medical-Center_CNNPH.jpg",
   "specialization": "Dental medicine, Family medicine, Internal medicine, Neurosciences, Obstetrics and gynecology, Occupational medicine, Ophthalmology, Orthopedic surgery, Othorhinolaryngology, Pathology, Pediatrics, Physical med & rehab, Radiology, Surgery",
   "price": 400
 },
 {
   "hospitalName": "Makati Medical Center",
   "address": "2 Amorsolo Street, Legaspi Vill. 1200 Makati City",
   "image": "https://announcement.ph/wp-content/uploads/2020/12/eJSCXmw92Srmc.jpg",
   "specialization": "Surgery",
   "price": 2000
 },
 {
   "hospitalName": "Ospital Ng Makati",
   "address": "Brgy. Pembo, Fort Bonifacio Makati City",
   "image": "https://www.webbline.com/wp-content/uploads/2018/01/gabriela.jpg",
   "specialization": "Dental Services",
   "price": 5000
 },
 {
   "hospitalName": "St. Claire's Medical Center",
   "address": "1838 Dian St., Makati City 1200",
   "image": "https://lh3.googleusercontent.com/p/AF1QipNF0KGg7PbCA2KwoDfHWswEzkHMx63QREQhNXNh=s1600-w400",
   "specialization": "General (Anesthesiology, Internal medicine, Gynecology, Pediatrics, Newborn screening, Surgery, Ophthalmology, Otorhinolaryngology and head and neck surgery, Anesthesiology, Laboratory and clinical pathology, Radiology, Family medicine)",
   "price": 10000
 },
 {
   "hospitalName": "Dr. Victor R. Potenciano Med Center",
   "address": "163 EDSA, 1554 Mandaluyong City",
   "image": "https://media.philstar.com/photos/2021/04/04/lung_2021-04-04_22-01-44.jpg",
   "specialization": "General",
   "price": 400
 },
 {
   "hospitalName": "National Center for Mental Health",
   "address": "Nueve de Pebrero St. 1553 Mandaluyong City",
   "image": "https://www.spchcm.com/hospitals/plugin/images/NDCH/banner.jpg",
   "specialization": "Surgery, Internal Medicine, Neurology, Orthopedic, Gynecology, Pediatric Health Care, Anesthesiology",
   "price": 2000
 },
 {
   "hospitalName": "Unciano General Hospital",
   "address": "393 Boni Avenue Mandaluyong City 1501",
   "image": "https://media.philstar.com/photos/2021/04/04/lung_2021-04-04_22-01-44.jpg",
   "specialization": "Surgery",
   "price": 5000
 },
 {
   "hospitalName": "Amosup Seamen's Hospital",
   "address": "Cabildo cor. San Jose St. Intramuros, 1002 Manila",
   "image": "https://cdn-healthcare.hellohealthgroup.com/hospitals/ph/quirino-memorial-medical-center-120220211.png",
   "specialization": "Internal Medicine",
   "price": 10000
 },
 {
   "hospitalName": "Chinese General Hosp. & Med.Center",
   "address": "286 Blumentritt St., Sta Cruz 1003 Manila",
   "image": "https://www.spchcm.com/hospitals/plugin/images/NDCH/banner.jpg",
   "specialization": "Pediatrics, Anesthesiology, and surgery,",
   "price": 400
 },
 {
   "hospitalName": "Dr. Jose Fabella Memorial Hospital",
   "address": "Lope de Vega St., Sta. Cruz, Manila",
   "image": "https://live.staticflickr.com/4141/4849809284_756e62b248_b.jpg",
   "specialization": "Ophthalmology",
   "price": 2000
 },
 {
   "hospitalName": "Dr. Mirando Unciano Sr. Medical Center",
   "address": "V. Mapa St., Sta. Mesa, Manila",
   "image": "https://www.cnnphilippines.com/.imaging/mte/demo-cnn-new/750x450/dam/cnn/2020/3/27/Amang-Rodriguez-Memorial-Medical-Center_CNNPH.jpg/jcr:content/Amang-Rodriguez-Memorial-Medical-Center_CNNPH.jpg",
   "specialization": "General (Internal Medicine, Anesthesiology, Family Medicine, Dental, OB, Ophthalmology, ENT, Orthopedics, Pediatrics, Psychiatry, Surgery, Radiology and Pathology)",
   "price": 5000
 },
 {
   "hospitalName": "Gat Andres Bonifacio Memorial Medical Center",
   "address": "Delpan St., Tondo Manila",
   "image": "https://announcement.ph/wp-content/uploads/2020/12/eJSCXmw92Srmc.jpg",
   "specialization": "General",
   "price": 10000
 },
 {
   "hospitalName": "Hospital of the Infant Jesus",
   "address": "1556 Laong Laan Road Sampaloc, 1008 Manila",
   "image": "https://www.webbline.com/wp-content/uploads/2018/01/gabriela.jpg",
   "specialization": "Dental medicine, Family medicine, Internal medicine, Neurosciences, Obstetrics and gynecology, Occupational medicine, Ophthalmology, Orthopedic surgery, Othorhinolaryngology, Pathology, Pediatrics, Physical med & rehab, Radiology, Surgery",
   "price": 400
 },
 {
   "hospitalName": "Jose R. Reyes Memorial Medical Ctr.",
   "address": "San Lazaro Compound Rizal Avenue Sta. Cruz, 1003 Manila",
   "image": "https://lh3.googleusercontent.com/p/AF1QipNF0KGg7PbCA2KwoDfHWswEzkHMx63QREQhNXNh=s1600-w400",
   "specialization": "Surgery",
   "price": 2000
 },
 {
   "hospitalName": "Manila Doctors Hospital",
   "address": "667 U.N. Avenue, Ermita, 2000 Manila",
   "image": "https://media.philstar.com/photos/2021/04/04/lung_2021-04-04_22-01-44.jpg",
   "specialization": "Dental Services",
   "price": 5000
 },
 {
   "hospitalName": "Mary Chiles General Hospital",
   "address": "667 Gastambide St. Sampaloc, 1008 Manila",
   "image": "https://www.spchcm.com/hospitals/plugin/images/NDCH/banner.jpg",
   "specialization": "General (Anesthesiology, Internal medicine, Gynecology, Pediatrics, Newborn screening, Surgery, Ophthalmology, Otorhinolaryngology and head and neck surgery, Anesthesiology, Laboratory and clinical pathology, Radiology, Family medicine)",
   "price": 10000
 },
 {
   "hospitalName": "Mary Johnston Hospital",
   "address": "1221 Nolasco St., Tondo 1012 Manila",
   "image": "https://media.philstar.com/photos/2021/04/04/lung_2021-04-04_22-01-44.jpg",
   "specialization": "General",
   "price": 400
 },
 {
   "hospitalName": "Medical Center Manila",
   "address": "1125 Gen. Luna St., Ermita 2000 Manila",
   "image": "https://cdn-healthcare.hellohealthgroup.com/hospitals/ph/quirino-memorial-medical-center-120220211.png",
   "specialization": "Surgery, Internal Medicine, Neurology, Orthopedic, Gynecology, Pediatric Health Care, Anesthesiology",
   "price": 2000
 },
 {
   "hospitalName": "Metropolitan Hospital",
   "address": "1357 Masangkay St., Tondo 1012 Manila",
   "image": "https://www.spchcm.com/hospitals/plugin/images/NDCH/banner.jpg",
   "specialization": "Surgery",
   "price": 5000
 },
 {
   "hospitalName": "Ospital ng Maynila Medical Center",
   "address": "Pres. Quirino Ave. cor Roxas Blvd. Malate, 1004 Manila",
   "image": "https://live.staticflickr.com/4141/4849809284_756e62b248_b.jpg",
   "specialization": "General (Internal Medicine, Anesthesiology, Family Medicine, Dental, OB, Ophthalmology, ENT, Orthopedics, Pediatrics, Psychiatry, Surgery, Radiology and Pathology)",
   "price": 10000
 },
 {
   "hospitalName": "Our Lady of Lourdes Hospital",
   "address": "46 P. Sanchez St. Sta Mesa, Manila",
   "image": "https://www.cnnphilippines.com/.imaging/mte/demo-cnn-new/750x450/dam/cnn/2020/3/27/Amang-Rodriguez-Memorial-Medical-Center_CNNPH.jpg/jcr:content/Amang-Rodriguez-Memorial-Medical-Center_CNNPH.jpg",
   "specialization": "General",
   "price": 400
 },
 {
   "hospitalName": "Perpetual Help Hospital",
   "address": "1504 Laong Laan St., Sampaloc 1008 Manila",
   "image": "https://announcement.ph/wp-content/uploads/2020/12/eJSCXmw92Srmc.jpg",
   "specialization": "Dental medicine, Family medicine, Internal medicine, Neurosciences, Obstetrics and gynecology, Occupational medicine, Ophthalmology, Orthopedic surgery, Othorhinolaryngology, Pathology, Pediatrics, Physical med & rehab, Radiology, Surgery",
   "price": 2000
 },
 {
   "hospitalName": "Presidential Security Group Station Hospital",
   "address": "Malacañang Park, Manila 1005",
   "image": "https://www.webbline.com/wp-content/uploads/2018/01/gabriela.jpg",
   "specialization": "Surgery",
   "price": 5000
 },
 {
   "hospitalName": "San Lazaro Hospital",
   "address": "Quiricada St., Sta. Cruz, 1003 Manila",
   "image": "https://lh3.googleusercontent.com/p/AF1QipNF0KGg7PbCA2KwoDfHWswEzkHMx63QREQhNXNh=s1600-w400",
   "specialization": "Dental Services",
   "price": 10000
 },
 {
   "hospitalName": "Santo Tomas University Hospital",
   "address": "España Boulevard, Sampaloc 1008 Manila",
   "image": "https://media.philstar.com/photos/2021/04/04/lung_2021-04-04_22-01-44.jpg",
   "specialization": "General (Anesthesiology, Internal medicine, Gynecology, Pediatrics, Newborn screening, Surgery, Ophthalmology, Otorhinolaryngology and head and neck surgery, Anesthesiology, Laboratory and clinical pathology, Radiology, Family medicine)",
   "price": 400
 },
 {
   "hospitalName": "St. Jude General Hospital & Medical Center",
   "address": "Dimasalang cor. Don Quijote Sts. Sampaloc, Manila 1008",
   "image": "https://www.spchcm.com/hospitals/plugin/images/NDCH/banner.jpg",
   "specialization": "General",
   "price": 2000
 },
 {
   "hospitalName": "The Family Clinic Inc. Hospital",
   "address": "1474 Maria Clara St. Sampaloc, Manila",
   "image": "https://media.philstar.com/photos/2021/04/04/lung_2021-04-04_22-01-44.jpg",
   "specialization": "Surgery, Internal Medicine, Neurology, Orthopedic, Gynecology, Pediatric Health Care, Anesthesiology",
   "price": 5000
 },
 {
   "hospitalName": "Tondo Medical Center",
   "address": "Kalakal St., Balut, Tondo 1012 Manila",
   "image": "https://cdn-healthcare.hellohealthgroup.com/hospitals/ph/quirino-memorial-medical-center-120220211.png",
   "specialization": "Surgery",
   "price": 10000
 },
 {
   "hospitalName": "UP-Philippine General Hospital",
   "address": "Taft Avenue, Ermita, 2000 Manila",
   "image": "https://www.spchcm.com/hospitals/plugin/images/NDCH/banner.jpg",
   "specialization": "General (Internal Medicine, Anesthesiology, Family Medicine, Dental, OB, Ophthalmology, ENT, Orthopedics, Pediatrics, Psychiatry, Surgery, Radiology and Pathology)",
   "price": 400
 },
 {
   "hospitalName": "Amang Rodriguez Medical Center",
   "address": "Sumulong Highway Marikina City 1800",
   "image": "https://live.staticflickr.com/4141/4849809284_756e62b248_b.jpg",
   "specialization": "General",
   "price": 2000
 },
 {
   "hospitalName": "Asian Hospital & Medical Center",
   "address": "2205 Civic Drive Filinvest Corporate City Alabang, 1780 Muntinlupa City",
   "image": "https://www.cnnphilippines.com/.imaging/mte/demo-cnn-new/750x450/dam/cnn/2020/3/27/Amang-Rodriguez-Memorial-Medical-Center_CNNPH.jpg/jcr:content/Amang-Rodriguez-Memorial-Medical-Center_CNNPH.jpg",
   "specialization": "Dental medicine, Family medicine, Internal medicine, Neurosciences, Obstetrics and gynecology, Occupational medicine, Ophthalmology, Orthopedic surgery, Othorhinolaryngology, Pathology, Pediatrics, Physical med & rehab, Radiology, Surgery",
   "price": 5000
 },
 {
   "hospitalName": "MPI - Medical Center Muntinlupa",
   "address": "#38 National Road, Putatan 1702 Muntinlupa City",
   "image": "https://announcement.ph/wp-content/uploads/2020/12/eJSCXmw92Srmc.jpg",
   "specialization": "Surgery",
   "price": 10000
 },
 {
   "hospitalName": "Ospital ng Muntinlupa",
   "address": "Filinvest Civic Drive Filinvest Corporate City Alabang, Muntinlupa City",
   "image": "https://www.webbline.com/wp-content/uploads/2018/01/gabriela.jpg",
   "specialization": "Dental Services",
   "price": 400
 },
 {
   "hospitalName": "Research Institute for Tropical Medicine",
   "address": "Filinvest Corporate City, Alabang 1780 Muntinlupa City",
   "image": "https://lh3.googleusercontent.com/p/AF1QipNF0KGg7PbCA2KwoDfHWswEzkHMx63QREQhNXNh=s1600-w400",
   "specialization": "General (Anesthesiology, Internal medicine, Gynecology, Pediatrics, Newborn screening, Surgery, Ophthalmology, Otorhinolaryngology and head and neck surgery, Anesthesiology, Laboratory and clinical pathology, Radiology, Family medicine)",
   "price": 2000
 },
 {
   "hospitalName": "Medical Center Parañaque, Inc.",
   "address": "A. Santos Ave., Sucat Road 1700 Parañaque",
   "image": "https://media.philstar.com/photos/2021/04/04/lung_2021-04-04_22-01-44.jpg",
   "specialization": "General",
   "price": 5000
 },
 {
   "hospitalName": "South Superhighway Medical Center",
   "address": "Km. 17 West Service Road South Superhighway 1700 Parañaque City",
   "image": "https://www.spchcm.com/hospitals/plugin/images/NDCH/banner.jpg",
   "specialization": "General",
   "price": 10000
 },
 {
   "hospitalName": "Manila Adventist Medical Center & School of Medical Arts, Inc.",
   "address": "1975 Donada St., 1300 Pasay City",
   "image": "https://media.philstar.com/photos/2021/04/04/lung_2021-04-04_22-01-44.jpg",
   "specialization": "Surgery, Internal Medicine, Neurology, Orthopedic, Gynecology, Pediatric Health Care, Anesthesiology",
   "price": 400
 },
 {
   "hospitalName": "Pasay City General Hospital",
   "address": "P. Burgos St., 1300 Pasay City",
   "image": "https://cdn-healthcare.hellohealthgroup.com/hospitals/ph/quirino-memorial-medical-center-120220211.png",
   "specialization": "Surgery",
   "price": 2000
 },
 {
   "hospitalName": "Philippine Air Force General Hospital",
   "address": "Villamor Air Base, 1309 Pasay City",
   "image": "https://www.spchcm.com/hospitals/plugin/images/NDCH/banner.jpg",
   "specialization": "Internal Medicine",
   "price": 5000
 },
 {
   "hospitalName": "San Juan De Dios Educational Foundation, Inc.",
   "address": "2772 Roxas Blvd, 1300 Pasay City",
   "image": "https://live.staticflickr.com/4141/4849809284_756e62b248_b.jpg",
   "specialization": "Pediatrics, Anesthesiology, and surgery,",
   "price": 10000
 },
 {
   "hospitalName": "John F. Cotton Hospital Center for Corporation Wellness",
   "address": "Meralco Compound, Ortigas Ave. 1600 Pasig City",
   "image": "https://www.cnnphilippines.com/.imaging/mte/demo-cnn-new/750x450/dam/cnn/2020/3/27/Amang-Rodriguez-Memorial-Medical-Center_CNNPH.jpg/jcr:content/Amang-Rodriguez-Memorial-Medical-Center_CNNPH.jpg",
   "specialization": "Ophthalmology",
   "price": 400
 },
 {
   "hospitalName": "Pasig City General Hospital",
   "address": "F. Legaspi St., Maybunga\n1600 Pasig City",
   "image": "https://announcement.ph/wp-content/uploads/2020/12/eJSCXmw92Srmc.jpg",
   "specialization": "Anesthesiology",
   "price": 2000
 },
 {
   "hospitalName": "Rizal Medical Center",
   "address": "#425 Pasig Boulevard 1600 Pasig City",
   "image": "https://www.webbline.com/wp-content/uploads/2018/01/gabriela.jpg",
   "specialization": "General",
   "price": 5000
 },
 {
   "hospitalName": "The Medical City",
   "address": "The Medical City Compound Ortigas Ave., Pasig City 1600",
   "image": "https://lh3.googleusercontent.com/p/AF1QipNF0KGg7PbCA2KwoDfHWswEzkHMx63QREQhNXNh=s1600-w400",
   "specialization": "General",
   "price": 10000
 },
 {
   "hospitalName": "AFP Medical Center",
   "address": "V. Luna Road, 1100 Quezon City",
   "image": "https://media.philstar.com/photos/2021/04/04/lung_2021-04-04_22-01-44.jpg",
   "specialization": "Dental medicine, Family medicine, Internal medicine, Neurosciences, Obstetrics and gynecology, Occupational medicine, Ophthalmology, Orthopedic surgery, Othorhinolaryngology, Pathology, Pediatrics, Physical med & rehab, Radiology, Surgery",
   "price": 400
 },
 {
   "hospitalName": "Capitol Medical Center, Inc.",
   "address": "Quezon Avenue, cor. Sct. Magbanua Quezon City",
   "image": "https://www.spchcm.com/hospitals/plugin/images/NDCH/banner.jpg",
   "specialization": "Surgery",
   "price": 2000
 },
 {
   "hospitalName": "Casaul General Hospital Inc.",
   "address": "16 Tandang Sora Ave. Sangandaan Novalichez, Quezon City",
   "image": "https://media.philstar.com/photos/2021/04/04/lung_2021-04-04_22-01-44.jpg",
   "specialization": "Dental Services",
   "price": 5000
 },
 {
   "hospitalName": "Delos Santos Medical Center",
   "address": "201 E. Rodriguez Blvd. Quezon City",
   "image": "https://cdn-healthcare.hellohealthgroup.com/hospitals/ph/quirino-memorial-medical-center-120220211.png",
   "specialization": "General (Anesthesiology, Internal medicine, Gynecology, Pediatrics, Newborn screening, Surgery, Ophthalmology, Otorhinolaryngology and head and neck surgery, Anesthesiology, Laboratory and clinical pathology, Radiology, Family medicine)",
   "price": 10000
 },
 {
   "hospitalName": "Dr. Fe del Mundo Medical Center Foundation Phils., Inc.",
   "address": "11 Banawe St., Quezon City",
   "image": "https://www.spchcm.com/hospitals/plugin/images/NDCH/banner.jpg",
   "specialization": "General",
   "price": 400
 },
 {
   "hospitalName": "Dr. Jesus C. Delgado Memorial Hospital",
   "address": "7 Kamuning Road, Quezon City",
   "image": "https://live.staticflickr.com/4141/4849809284_756e62b248_b.jpg",
   "specialization": "General",
   "price": 2000
 },
 {
   "hospitalName": "East Avenue Medical Center",
   "address": "East Avenue, Diliman, Quezon City",
   "image": "https://www.cnnphilippines.com/.imaging/mte/demo-cnn-new/750x450/dam/cnn/2020/3/27/Amang-Rodriguez-Memorial-Medical-Center_CNNPH.jpg/jcr:content/Amang-Rodriguez-Memorial-Medical-Center_CNNPH.jpg",
   "specialization": "Surgery, Internal Medicine, Neurology, Orthopedic, Gynecology, Pediatric Health Care, Anesthesiology",
   "price": 5000
 },
 {
   "hospitalName": "F.E.U.-Nicanor Reyes Medical Foundation Medical Center",
   "address": "Regalado Avenue, West Fairview 1108 Quezon City",
   "image": "https://announcement.ph/wp-content/uploads/2020/12/eJSCXmw92Srmc.jpg",
   "specialization": "Surgery",
   "price": 10000
 },
 {
   "hospitalName": "Lung Center of the Philippines",
   "address": "Quezon Ave. Ext., Quezon City",
   "image": "https://www.webbline.com/wp-content/uploads/2018/01/gabriela.jpg",
   "specialization": "Internal Medicine",
   "price": 400
 },
 {
   "hospitalName": "National Children's Hospital",
   "address": "264 E. Rodriguez Blvd. Quezon City",
   "image": "https://lh3.googleusercontent.com/p/AF1QipNF0KGg7PbCA2KwoDfHWswEzkHMx63QREQhNXNh=s1600-w400",
   "specialization": "Pediatrics, Anesthesiology, and surgery,",
   "price": 2000
 },
 {
   "hospitalName": "National Kidney & Transplant Institute",
   "address": "East Avenue, Quezon City",
   "image": "https://media.philstar.com/photos/2021/04/04/lung_2021-04-04_22-01-44.jpg",
   "specialization": "Ophthalmology",
   "price": 5000
 },
 {
   "hospitalName": "Novaliches General Hospital",
   "address": "793 Quirino Highway, Gulod Novaliches, Quezon City",
   "image": "https://www.spchcm.com/hospitals/plugin/images/NDCH/banner.jpg",
   "specialization": "Anesthesiology",
   "price": 10000
 },
 {
   "hospitalName": "Philippine Children's Medical Center",
   "address": "Quezon Avenue, Quezon City 1100",
   "image": "https://media.philstar.com/photos/2021/04/04/lung_2021-04-04_22-01-44.jpg",
   "specialization": "General",
   "price": 400
 },
 {
   "hospitalName": "Philippine Heart Center",
   "address": "East Avenue, Diliman 1110 Quezon City",
   "image": "https://cdn-healthcare.hellohealthgroup.com/hospitals/ph/quirino-memorial-medical-center-120220211.png",
   "specialization": "Dental medicine, Family medicine, Internal medicine, Neurosciences, Obstetrics and gynecology, Occupational medicine, Ophthalmology, Orthopedic surgery, Othorhinolaryngology, Pathology, Pediatrics, Physical med & rehab, Radiology, Surgery",
   "price": 2000
 },
 {
   "hospitalName": "Philippine Orthopedic Center",
   "address": "M. Clara St. cor. Banawe St. Quezon City",
   "image": "https://www.spchcm.com/hospitals/plugin/images/NDCH/banner.jpg",
   "specialization": "Surgery",
   "price": 5000
 },
 {
   "hospitalName": "PNP General Hospital",
   "address": "EDSA, Camp Crame, Quezon City",
   "image": "https://live.staticflickr.com/4141/4849809284_756e62b248_b.jpg",
   "specialization": "Dental Services",
   "price": 10000
 },
 {
   "hospitalName": "Q.C. St. Agnes General Hospital",
   "address": "241 Roosevelt Avenue Quezon City",
   "image": "https://www.cnnphilippines.com/.imaging/mte/demo-cnn-new/750x450/dam/cnn/2020/3/27/Amang-Rodriguez-Memorial-Medical-Center_CNNPH.jpg/jcr:content/Amang-Rodriguez-Memorial-Medical-Center_CNNPH.jpg",
   "specialization": "General (Anesthesiology, Internal medicine, Gynecology, Pediatrics, Newborn screening, Surgery, Ophthalmology, Otorhinolaryngology and head and neck surgery, Anesthesiology, Laboratory and clinical pathology, Radiology, Family medicine)",
   "price": 400
 },
 {
   "hospitalName": "Quezon City General Hospital",
   "address": "Seminary Road, Quezon City",
   "image": "https://announcement.ph/wp-content/uploads/2020/12/eJSCXmw92Srmc.jpg",
   "specialization": "General",
   "price": 2000
 },
 {
   "hospitalName": "Quezon Institute",
   "address": "E. Rodriguez Sr. Blvd. 1102 Quezon City",
   "image": "https://www.webbline.com/wp-content/uploads/2018/01/gabriela.jpg",
   "specialization": "General",
   "price": 5000
 },
 {
   "hospitalName": "Quirino Memorial Medical Center",
   "address": "Project 4, Katipunan, Quezon City",
   "image": "https://lh3.googleusercontent.com/p/AF1QipNF0KGg7PbCA2KwoDfHWswEzkHMx63QREQhNXNh=s1600-w400",
   "specialization": "Surgery, Internal Medicine, Neurology, Orthopedic, Gynecology, Pediatric Health Care, Anesthesiology",
   "price": 10000
 },
 {
   "hospitalName": "St. Luke's Medical Center",
   "address": "279 E. Rodriguez Sr. Blvd. Quezon City",
   "image": "https://media.philstar.com/photos/2021/04/04/lung_2021-04-04_22-01-44.jpg",
   "specialization": "Surgery",
   "price": 400
 },
 {
   "hospitalName": "Sta. Teresita General Hospital",
   "address": "100 D. Tuazon St. Quezon City 1114",
   "image": "https://www.spchcm.com/hospitals/plugin/images/NDCH/banner.jpg",
   "specialization": "Internal Medicine",
   "price": 2000
 },
 {
   "hospitalName": "U.E.R.M. Memorial Medical Center",
   "address": "Aurora Blvd., Sta. Mesa, Quezon City",
   "image": "https://media.philstar.com/photos/2021/04/04/lung_2021-04-04_22-01-44.jpg",
   "specialization": "Pediatrics, Anesthesiology, and surgery,",
   "price": 5000
 },
 {
   "hospitalName": "United Doctors Medical Center",
   "address": "290 España cor. 6th N. Ramirez St. Quezon City",
   "image": "https://cdn-healthcare.hellohealthgroup.com/hospitals/ph/quirino-memorial-medical-center-120220211.png",
   "specialization": "Ophthalmology",
   "price": 10000
 },
 {
   "hospitalName": "Veterans Memorial Medical Center",
   "address": "North Ave., Diliman, Quezon City",
   "image": "https://www.spchcm.com/hospitals/plugin/images/NDCH/banner.jpg",
   "specialization": "Anesthesiology",
   "price": 400
 },
 {
   "hospitalName": "World Citi Medical Center",
   "address": "960 Aurora Blvd., Quezon City",
   "image": "https://live.staticflickr.com/4141/4849809284_756e62b248_b.jpg",
   "specialization": "General",
   "price": 2000
 },
 {
   "hospitalName": "Cardinal Santos Medical Center",
   "address": "Wilson St., Greenhills West 1400 San Juan",
   "image": "https://www.cnnphilippines.com/.imaging/mte/demo-cnn-new/750x450/dam/cnn/2020/3/27/Amang-Rodriguez-Memorial-Medical-Center_CNNPH.jpg/jcr:content/Amang-Rodriguez-Memorial-Medical-Center_CNNPH.jpg",
   "specialization": "General",
   "price": 5000
 },
 {
   "hospitalName": "San Juan Medical Center",
   "address": "N. Domingo Street 1400 San Juan",
   "image": "https://announcement.ph/wp-content/uploads/2020/12/eJSCXmw92Srmc.jpg",
   "specialization": "Dental medicine, Family medicine, Internal medicine, Neurosciences, Obstetrics and gynecology, Occupational medicine, Ophthalmology, Orthopedic surgery, Othorhinolaryngology, Pathology, Pediatrics, Physical med & rehab, Radiology, Surgery",
   "price": 10000
 },
 {
   "hospitalName": "St. Martin De Porres Charity Hospital",
   "address": "70 A. Bonifacio St. 1400 San Juan",
   "image": "https://www.webbline.com/wp-content/uploads/2018/01/gabriela.jpg",
   "specialization": "Surgery",
   "price": 400
 },
 {
   "hospitalName": "Fatima Medical Center, Inc.",
   "address": "120 McArthur Highway Valenzuela 1405",
   "image": "https://lh3.googleusercontent.com/p/AF1QipNF0KGg7PbCA2KwoDfHWswEzkHMx63QREQhNXNh=s1600-w400",
   "specialization": "Dental Services",
   "price": 2000
 },
 {
   "hospitalName": "Valenzuela General Hospital",
   "address": "Padrigal St., Karuhatan 1441 Valenzuela",
   "image": "https://media.philstar.com/photos/2021/04/04/lung_2021-04-04_22-01-44.jpg",
   "specialization": "General (Anesthesiology, Internal medicine, Gynecology, Pediatrics, Newborn screening, Surgery, Ophthalmology, Otorhinolaryngology and head and neck surgery, Anesthesiology, Laboratory and clinical pathology, Radiology, Family medicine)",
   "price": 5000
 },
 {
   "hospitalName": "Ago General Hospital",
   "address": "Rizal St., Legaspi City 4400 Albay",
   "image": "https://www.spchcm.com/hospitals/plugin/images/NDCH/banner.jpg",
   "specialization": "General",
   "price": 10000
 },
 {
   "hospitalName": "Aquinas University Hospital Foundation, Inc.",
   "address": "Washington Drive Legaspi City, 4400 Albay",
   "image": "https://media.philstar.com/photos/2021/04/04/lung_2021-04-04_22-01-44.jpg",
   "specialization": "General",
   "price": 400
 },
 {
   "hospitalName": "Bicol Regional Training & Teaching Hospital",
   "address": "Legaspi City, 4400 Albay",
   "image": "https://cdn-healthcare.hellohealthgroup.com/hospitals/ph/quirino-memorial-medical-center-120220211.png",
   "specialization": "Surgery, Internal Medicine, Neurology, Orthopedic, Gynecology, Pediatric Health Care, Anesthesiology",
   "price": 2000
 },
 {
   "hospitalName": "Estevez Memorial Hospital, Inc.",
   "address": "Guevarra Subd., Legaspi City 4400 Albay",
   "image": "https://www.spchcm.com/hospitals/plugin/images/NDCH/banner.jpg",
   "specialization": "Surgery",
   "price": 5000
 },
 {
   "hospitalName": "Tanchuling Hospital",
   "address": "Imperial Court Subd., Phase II Legaspi City, 4400 Albay",
   "image": "https://live.staticflickr.com/4141/4849809284_756e62b248_b.jpg",
   "specialization": "General",
   "price": 10000
 },
 {
   "hospitalName": "Camarines Norte Provincial Hospital",
   "address": "Daet, Camarines Norte",
   "image": "https://www.cnnphilippines.com/.imaging/mte/demo-cnn-new/750x450/dam/cnn/2020/3/27/Amang-Rodriguez-Memorial-Medical-Center_CNNPH.jpg/jcr:content/Amang-Rodriguez-Memorial-Medical-Center_CNNPH.jpg",
   "specialization": "Dental medicine, Family medicine, Internal medicine, Neurosciences, Obstetrics and gynecology, Occupational medicine, Ophthalmology, Orthopedic surgery, Othorhinolaryngology, Pathology, Pediatrics, Physical med & rehab, Radiology, Surgery",
   "price": 400
 },
 {
   "hospitalName": "Leon D. Hernandez Memorial Center",
   "address": "#1328 Dasmariñas Street, Daet 4600 Camarines Norte",
   "image": "https://announcement.ph/wp-content/uploads/2020/12/eJSCXmw92Srmc.jpg",
   "specialization": "Surgery",
   "price": 2000
 },
 {
   "hospitalName": "Our Lady of Lourdes Hospital",
   "address": "Vinzons Ave., Daet 4600 Camarines Norte",
   "image": "https://www.webbline.com/wp-content/uploads/2018/01/gabriela.jpg",
   "specialization": "Dental Services",
   "price": 5000
 },
 {
   "hospitalName": "Sto. Niño Hospital",
   "address": "Mercedes Road, Daet 4600 Camarines Norte",
   "image": "https://lh3.googleusercontent.com/p/AF1QipNF0KGg7PbCA2KwoDfHWswEzkHMx63QREQhNXNh=s1600-w400",
   "specialization": "General (Anesthesiology, Internal medicine, Gynecology, Pediatrics, Newborn screening, Surgery, Ophthalmology, Otorhinolaryngology and head and neck surgery, Anesthesiology, Laboratory and clinical pathology, Radiology, Family medicine)",
   "price": 10000
 },
 {
   "hospitalName": "Ago Foundation Hospital",
   "address": "Concepcion Grande, Naga City 4400 Camarines Sur",
   "image": "https://media.philstar.com/photos/2021/04/04/lung_2021-04-04_22-01-44.jpg",
   "specialization": "General",
   "price": 400
 },
 {
   "hospitalName": "Bicol Medical Center",
   "address": "Panganiban Drive, Naga City 4400 Camarines Sur",
   "image": "https://www.spchcm.com/hospitals/plugin/images/NDCH/banner.jpg",
   "specialization": "General",
   "price": 2000
 },
 {
   "hospitalName": "Mother Seton Hospital",
   "address": "Roxas Avenue, Diversion Road Naga City, 4400 Camarines Sur",
   "image": "https://media.philstar.com/photos/2021/04/04/lung_2021-04-04_22-01-44.jpg",
   "specialization": "Surgery, Internal Medicine, Neurology, Orthopedic, Gynecology, Pediatric Health Care, Anesthesiology",
   "price": 5000
 },
 {
   "hospitalName": "St. John Hospital, Inc.",
   "address": "Panganiban Drive, Naga City 4400 Camarines Sur",
   "image": "https://cdn-healthcare.hellohealthgroup.com/hospitals/ph/quirino-memorial-medical-center-120220211.png",
   "specialization": "Surgery",
   "price": 10000
 },
 {
   "hospitalName": "Eastern Bicol Medical Center",
   "address": "Virac, 4800 Catanduanes",
   "image": "https://www.spchcm.com/hospitals/plugin/images/NDCH/banner.jpg",
   "specialization": "Internal Medicine",
   "price": 400
 },
 {
   "hospitalName": "Masbate Provincial Hospital",
   "address": "Hospital Road, Masbate City 5400 Masbate",
   "image": "https://live.staticflickr.com/4141/4849809284_756e62b248_b.jpg",
   "specialization": "Pediatrics, Anesthesiology, and surgery,",
   "price": 2000
 },
 {
   "hospitalName": "Dr. Fernando B. Duran, Sr. Memorial Hospital",
   "address": "Sorsogon, 4700 Sorsogon",
   "image": "https://www.cnnphilippines.com/.imaging/mte/demo-cnn-new/750x450/dam/cnn/2020/3/27/Amang-Rodriguez-Memorial-Medical-Center_CNNPH.jpg/jcr:content/Amang-Rodriguez-Memorial-Medical-Center_CNNPH.jpg",
   "specialization": "General",
   "price": 5000
 },
 {
   "hospitalName": "Angel Salazar Memorial General Hospital (IPHO)",
   "address": "San Jose, 5700 Antique",
   "image": "https://announcement.ph/wp-content/uploads/2020/12/eJSCXmw92Srmc.jpg",
   "specialization": "Dental medicine, Family medicine, Internal medicine, Neurosciences, Obstetrics and gynecology, Occupational medicine, Ophthalmology, Orthopedic surgery, Othorhinolaryngology, Pathology, Pediatrics, Physical med & rehab, Radiology, Surgery",
   "price": 10000
 },
 {
   "hospitalName": "Capiz Emmanuel Hospital",
   "address": "Roxas Avenue, Roxas City 5800 Capiz",
   "image": "https://www.webbline.com/wp-content/uploads/2018/01/gabriela.jpg",
   "specialization": "Surgery",
   "price": 400
 },
 {
   "hospitalName": "Roxas Memorial Provincial Hospital",
   "address": "Arnaldo Blvd., Roxas City 5800 Capiz",
   "image": "https://lh3.googleusercontent.com/p/AF1QipNF0KGg7PbCA2KwoDfHWswEzkHMx63QREQhNXNh=s1600-w400",
   "specialization": "Dental Services",
   "price": 2000
 },
 {
   "hospitalName": "St. Anthony College Hospital",
   "address": "San Roque Ext., Roxas City 5800 Capiz",
   "image": "https://media.philstar.com/photos/2021/04/04/lung_2021-04-04_22-01-44.jpg",
   "specialization": "General (Anesthesiology, Internal medicine, Gynecology, Pediatrics, Newborn screening, Surgery, Ophthalmology, Otorhinolaryngology and head and neck surgery, Anesthesiology, Laboratory and clinical pathology, Radiology, Family medicine)",
   "price": 5000
 },
 {
   "hospitalName": "Iloilo Doctor's Hospital",
   "address": "West Avenue, Molo 5000 Iloilo City",
   "image": "https://www.spchcm.com/hospitals/plugin/images/NDCH/banner.jpg",
   "specialization": "General",
   "price": 10000
 },
 {
   "hospitalName": "Iloilo Mission Hospital",
   "address": "Mission Road, Jaro, 5000 Iloilo City",
   "image": "https://media.philstar.com/photos/2021/04/04/lung_2021-04-04_22-01-44.jpg",
   "specialization": "Dental medicine, Family medicine, Internal medicine, Neurosciences, Obstetrics and gynecology, Occupational medicine, Ophthalmology, Orthopedic surgery, Othorhinolaryngology, Pathology, Pediatrics, Physical med & rehab, Radiology, Surgery",
   "price": 400
 },
 {
   "hospitalName": "Saint Paul's Hospital Iloilo",
   "address": "Gen. Luna St., 5000 Iloilo City",
   "image": "https://cdn-healthcare.hellohealthgroup.com/hospitals/ph/quirino-memorial-medical-center-120220211.png",
   "specialization": "Surgery",
   "price": 2000
 },
 {
   "hospitalName": "St. Therese-MTC Colleges Hospital",
   "address": "San Agustin St., Brgy. San Agustin Iloilo City",
   "image": "https://www.spchcm.com/hospitals/plugin/images/NDCH/banner.jpg",
   "specialization": "Dental Services",
   "price": 5000
 },
 {
   "hospitalName": "West Visayas State University Medical Center",
   "address": "E. Lopez St., Jaro, 5000 Iloilo City",
   "image": "https://live.staticflickr.com/4141/4849809284_756e62b248_b.jpg",
   "specialization": "General (Anesthesiology, Internal medicine, Gynecology, Pediatrics, Newborn screening, Surgery, Ophthalmology, Otorhinolaryngology and head and neck surgery, Anesthesiology, Laboratory and clinical pathology, Radiology, Family medicine)",
   "price": 10000
 },
 {
   "hospitalName": "Western Visayas Medical Center",
   "address": "Q. Abeto St., Manduriao 5000 Iloilo City",
   "image": "https://www.cnnphilippines.com/.imaging/mte/demo-cnn-new/750x450/dam/cnn/2020/3/27/Amang-Rodriguez-Memorial-Medical-Center_CNNPH.jpg/jcr:content/Amang-Rodriguez-Memorial-Medical-Center_CNNPH.jpg",
   "specialization": "General",
   "price": 400
 },
 {
   "hospitalName": "Bacolod Adventist Medical Center",
   "address": "Taculing, Bacolod City 6100 Negros Occidental",
   "image": "https://announcement.ph/wp-content/uploads/2020/12/eJSCXmw92Srmc.jpg",
   "specialization": "General",
   "price": 2000
 },
 {
   "hospitalName": "Bacolod Our Lady of Mercy Specialty Hospital",
   "address": "Erocero, Mandalagan, Bacolod City 6100 Negros Occidental",
   "image": "https://www.webbline.com/wp-content/uploads/2018/01/gabriela.jpg",
   "specialization": "Surgery, Internal Medicine, Neurology, Orthopedic, Gynecology, Pediatric Health Care, Anesthesiology",
   "price": 5000
 },
 {
   "hospitalName": "Corazon Locsin Montilibano Memorial Regional Hospital",
   "address": "Lacson St., Bacolod City 6100 Negros Occidental",
   "image": "https://lh3.googleusercontent.com/p/AF1QipNF0KGg7PbCA2KwoDfHWswEzkHMx63QREQhNXNh=s1600-w400",
   "specialization": "Surgery",
   "price": 10000
 },
 {
   "hospitalName": "Dr. Pablo O. Torre Memorial Hospital",
   "address": "B.S. Aquino Drive, Bacolod City 6100 Negros Occidental",
   "image": "https://media.philstar.com/photos/2021/04/04/lung_2021-04-04_22-01-44.jpg",
   "specialization": "Internal Medicine",
   "price": 400
 },
 {
   "hospitalName": "The Doctor's Hospital, Inc.",
   "address": "B.S. Aquino Drive, Bacolod City 6100 Negros Occidental",
   "image": "https://www.spchcm.com/hospitals/plugin/images/NDCH/banner.jpg",
   "specialization": "Pediatrics, Anesthesiology, and surgery,",
   "price": 2000
 },
 {
   "hospitalName": "Gov. Celestino Gallares Memorial Hospital Tagbilaran Community Hospital Corporation",
   "address": "#49 Miguel Parras St. Tagbilaran City, 6300 Bohol",
   "image": "https://media.philstar.com/photos/2021/04/04/lung_2021-04-04_22-01-44.jpg",
   "specialization": "Ophthalmology",
   "price": 5000
 },
 {
   "hospitalName": "Amosup Seamen's Hospital-Cebu",
   "address": "Camino Vicinal St., Umapad Mandaue City, 6014 Cebu",
   "image": "https://cdn-healthcare.hellohealthgroup.com/hospitals/ph/quirino-memorial-medical-center-120220211.png",
   "specialization": "Anesthesiology",
   "price": 10000
 },
 {
   "hospitalName": "Camp Lapu-Lapu Station Hospital",
   "address": "Camp Lapu-Lapu, Cebu City 6000 Cebu",
   "image": "https://www.spchcm.com/hospitals/plugin/images/NDCH/banner.jpg",
   "specialization": "General",
   "price": 400
 },
 {
   "hospitalName": "Cebu City Medical Center",
   "address": "N. Bacalso Avenue 6000 Cebu City",
   "image": "https://live.staticflickr.com/4141/4849809284_756e62b248_b.jpg",
   "specialization": "General",
   "price": 2000
 },
 {
   "hospitalName": "Cebu Doctor's Hospital",
   "address": "Osmeña Boulevard Cebu City, 6000 Cebu",
   "image": "https://www.cnnphilippines.com/.imaging/mte/demo-cnn-new/750x450/dam/cnn/2020/3/27/Amang-Rodriguez-Memorial-Medical-Center_CNNPH.jpg/jcr:content/Amang-Rodriguez-Memorial-Medical-Center_CNNPH.jpg",
   "specialization": "General",
   "price": 5000
 },
 {
   "hospitalName": "Cebu Puericulture Center & Maternity House, Inc.",
   "address": "2-B Rodriguez St., Cebu City 6000 Cebu",
   "image": "https://announcement.ph/wp-content/uploads/2020/12/eJSCXmw92Srmc.jpg",
   "specialization": "Dental medicine, Family medicine, Internal medicine, Neurosciences, Obstetrics and gynecology, Occupational medicine, Ophthalmology, Orthopedic surgery, Othorhinolaryngology, Pathology, Pediatrics, Physical med & rehab, Radiology, Surgery",
   "price": 10000
 },
 {
   "hospitalName": "Cebu North General Hospital",
   "address": "Kauswagan Road Talamban City, Cebu",
   "image": "https://www.webbline.com/wp-content/uploads/2018/01/gabriela.jpg",
   "specialization": "Surgery",
   "price": 400
 },
 {
   "hospitalName": "Cebu South General Hospital, Inc.",
   "address": "National Road, Tuyan Naga, Cebu",
   "image": "https://lh3.googleusercontent.com/p/AF1QipNF0KGg7PbCA2KwoDfHWswEzkHMx63QREQhNXNh=s1600-w400",
   "specialization": "Dental Services",
   "price": 2000
 },
 {
   "hospitalName": "Cebu (Velez) General Hospital, Inc.",
   "address": "F. Ramos St., 6000 Cebu City",
   "image": "https://media.philstar.com/photos/2021/04/04/lung_2021-04-04_22-01-44.jpg",
   "specialization": "General (Anesthesiology, Internal medicine, Gynecology, Pediatrics, Newborn screening, Surgery, Ophthalmology, Otorhinolaryngology and head and neck surgery, Anesthesiology, Laboratory and clinical pathology, Radiology, Family medicine)",
   "price": 5000
 },
 {
   "hospitalName": "Chong Hua Hospital",
   "address": "Llorente St., Fuente Osmeña 6000 Cebu City",
   "image": "https://www.spchcm.com/hospitals/plugin/images/NDCH/banner.jpg",
   "specialization": "General",
   "price": 10000
 },
 {
   "hospitalName": "Dr. Ignacio M. Cortez",
   "address": "General Hospital, Inc. S.B. Cabahug, Mandaue City 6014 Cebu",
   "image": "https://media.philstar.com/photos/2021/04/04/lung_2021-04-04_22-01-44.jpg",
   "specialization": "General",
   "price": 400
 },
 {
   "hospitalName": "H.W. Miller Memorial Sanitarium & Hospital",
   "address": "400 Tres de Abril St. Cebu City, 6000 Cebu",
   "image": "https://cdn-healthcare.hellohealthgroup.com/hospitals/ph/quirino-memorial-medical-center-120220211.png",
   "specialization": "Surgery, Internal Medicine, Neurology, Orthopedic, Gynecology, Pediatric Health Care, Anesthesiology",
   "price": 2000
 },
 {
   "hospitalName": "Lapu-Lapu City District Hospital",
   "address": "Lapu-Lapu City, 6015 Cebu",
   "image": "https://www.spchcm.com/hospitals/plugin/images/NDCH/banner.jpg",
   "specialization": "Surgery",
   "price": 5000
 },
 {
   "hospitalName": "Mactan Community Hospital, Inc.",
   "address": "Basak, Lapu-Lapu City 6015 Cebu",
   "image": "https://live.staticflickr.com/4141/4849809284_756e62b248_b.jpg",
   "specialization": "Internal Medicine",
   "price": 10000
 },
 {
   "hospitalName": "Perpetual Succour Hospital of Cebu, Inc.",
   "address": "Gorordo Avenue, Cebu City 6000 Cebu",
   "image": "https://www.cnnphilippines.com/.imaging/mte/demo-cnn-new/750x450/dam/cnn/2020/3/27/Amang-Rodriguez-Memorial-Medical-Center_CNNPH.jpg/jcr:content/Amang-Rodriguez-Memorial-Medical-Center_CNNPH.jpg",
   "specialization": "Pediatrics, Anesthesiology, and surgery,",
   "price": 400
 },
 {
   "hospitalName": "Sacred Heart Hospital",
   "address": "Villaznar Road, Urgello St. Cebu City, 6000 Cebu",
   "image": "https://announcement.ph/wp-content/uploads/2020/12/eJSCXmw92Srmc.jpg",
   "specialization": "Ophthalmology",
   "price": 2000
 },
 {
   "hospitalName": "Vicente Gullas Memorial Hospital",
   "address": "Banilad, Mandaue City 6014 Cebu",
   "image": "https://www.webbline.com/wp-content/uploads/2018/01/gabriela.jpg",
   "specialization": "Anesthesiology",
   "price": 5000
 },
 {
   "hospitalName": "Vicente Sotto Memorial Medical Center",
   "address": "B. Rodriguez St., Cebu City 6000 Cebu",
   "image": "https://lh3.googleusercontent.com/p/AF1QipNF0KGg7PbCA2KwoDfHWswEzkHMx63QREQhNXNh=s1600-w400",
   "specialization": "General",
   "price": 10000
 },
 {
   "hospitalName": "Visayas Community Medical Center",
   "address": "85 Osme'ña Blvd., Cebu City 6000 Cebu",
   "image": "https://media.philstar.com/photos/2021/04/04/lung_2021-04-04_22-01-44.jpg",
   "specialization": "General",
   "price": 400
 },
 {
   "hospitalName": "Holy Child Hospital",
   "address": "Dumaguete City 6200 Negros Oriental",
   "image": "https://www.spchcm.com/hospitals/plugin/images/NDCH/banner.jpg",
   "specialization": "Surgery, Internal Medicine, Neurology, Orthopedic, Gynecology, Pediatric Health Care, Anesthesiology",
   "price": 2000
 },
 {
   "hospitalName": "Negros Oriental Provincial Hospital",
   "address": "Piapi, Dumaguete City 6204 Negros Oriental",
   "image": "https://media.philstar.com/photos/2021/04/04/lung_2021-04-04_22-01-44.jpg",
   "specialization": "Surgery",
   "price": 5000
 },
 {
   "hospitalName": "Silliman Medical Center",
   "address": "Aldecoa Road, Laguna Dumaguete City 6200 Negros Oriental",
   "image": "https://cdn-healthcare.hellohealthgroup.com/hospitals/ph/quirino-memorial-medical-center-120220211.png",
   "specialization": "Internal Medicine",
   "price": 10000
 },
 {
   "hospitalName": "Siquijor Provincial Hospital",
   "address": "Siquijor, 6225 Siquijor",
   "image": "https://www.spchcm.com/hospitals/plugin/images/NDCH/banner.jpg",
   "specialization": "General",
   "price": 400
 },
 {
   "hospitalName": "Bethany Hospital",
   "address": "Real St., Tacloban City 6400 Northern Leyte",
   "image": "https://live.staticflickr.com/4141/4849809284_756e62b248_b.jpg",
   "specialization": "Dental medicine, Family medicine, Internal medicine, Neurosciences, Obstetrics and gynecology, Occupational medicine, Ophthalmology, Orthopedic surgery, Othorhinolaryngology, Pathology, Pediatrics, Physical med & rehab, Radiology, Surgery",
   "price": 2000
 },
 {
   "hospitalName": "Divine Word Hospital",
   "address": "Avenida Veteranos, Tacloban City 6400 Northern Leyte",
   "image": "https://www.cnnphilippines.com/.imaging/mte/demo-cnn-new/750x450/dam/cnn/2020/3/27/Amang-Rodriguez-Memorial-Medical-Center_CNNPH.jpg/jcr:content/Amang-Rodriguez-Memorial-Medical-Center_CNNPH.jpg",
   "specialization": "Surgery",
   "price": 5000
 },
 {
   "hospitalName": "Eastern Visayas Regional Medical Center",
   "address": "Magsaysay Blvd., Tacloban City 6400 Northern Leyte",
   "image": "https://announcement.ph/wp-content/uploads/2020/12/eJSCXmw92Srmc.jpg",
   "specialization": "Dental Services",
   "price": 10000
 },
 {
   "hospitalName": "Ormoc District Hospital",
   "address": "Cogon, Combado, Ormoc City 6541 Northern Leyte",
   "image": "https://www.webbline.com/wp-content/uploads/2018/01/gabriela.jpg",
   "specialization": "General (Anesthesiology, Internal medicine, Gynecology, Pediatrics, Newborn screening, Surgery, Ophthalmology, Otorhinolaryngology and head and neck surgery, Anesthesiology, Laboratory and clinical pathology, Radiology, Family medicine)",
   "price": 400
 },
 {
   "hospitalName": "Salvacion Oppus-Y'ñiguez Memorial Provincial Hospital",
   "address": "Mantahan, Maasin 6600 Southern Leyte",
   "image": "https://lh3.googleusercontent.com/p/AF1QipNF0KGg7PbCA2KwoDfHWswEzkHMx63QREQhNXNh=s1600-w400",
   "specialization": "General",
   "price": 2000
 },
 {
   "hospitalName": "Brent Hospital & College, Inc.",
   "address": "Justice Rt. Lim Blvd.",
   "image": "https://media.philstar.com/photos/2021/04/04/lung_2021-04-04_22-01-44.jpg",
   "specialization": "General",
   "price": 5000
 },
 {
   "hospitalName": "Ciudad Medical Zamboanga",
   "address": "Nuñez Extension, Zamboanga City",
   "image": "https://www.spchcm.com/hospitals/plugin/images/NDCH/banner.jpg",
   "specialization": "Surgery, Internal Medicine, Neurology, Orthopedic, Gynecology, Pediatric Health Care, Anesthesiology",
   "price": 10000
 },
 {
   "hospitalName": "Zamboanga Arturo Eustaquio Community Medical Center",
   "address": "247 San Jose Road 7000 Zamboanga City",
   "image": "https://media.philstar.com/photos/2021/04/04/lung_2021-04-04_22-01-44.jpg",
   "specialization": "Surgery",
   "price": 400
 },
 {
   "hospitalName": "Zamboanga City Medical Center",
   "address": "Evangelista St., Sta. Catalina 7000 Zamboanga City",
   "image": "https://cdn-healthcare.hellohealthgroup.com/hospitals/ph/quirino-memorial-medical-center-120220211.png",
   "specialization": "General",
   "price": 2000
 },
 {
   "hospitalName": "Zamboanga Doctor's Hospital",
   "address": "Veterans Avenue 7000 Zamboanga City",
   "image": "https://www.spchcm.com/hospitals/plugin/images/NDCH/banner.jpg",
   "specialization": "Dental medicine, Family medicine, Internal medicine, Neurosciences, Obstetrics and gynecology, Occupational medicine, Ophthalmology, Orthopedic surgery, Othorhinolaryngology, Pathology, Pediatrics, Physical med & rehab, Radiology, Surgery",
   "price": 5000
 },
 {
   "hospitalName": "Pagadian City Medical Hospital",
   "address": "Alano St., cor. Cabrera St. 7016 Zamboanga del Sur",
   "image": "https://live.staticflickr.com/4141/4849809284_756e62b248_b.jpg",
   "specialization": "Surgery",
   "price": 10000
 },
 {
   "hospitalName": "Bukidnon Provincial Hospital (IPHO)",
   "address": "Capitol Site, Brgy. 9 Malaybalay, 8700 Bukidnon",
   "image": "https://www.cnnphilippines.com/.imaging/mte/demo-cnn-new/750x450/dam/cnn/2020/3/27/Amang-Rodriguez-Memorial-Medical-Center_CNNPH.jpg/jcr:content/Amang-Rodriguez-Memorial-Medical-Center_CNNPH.jpg",
   "specialization": "General",
   "price": 400
 },
 {
   "hospitalName": "Philipps Memorial Hospital",
   "address": "Camp Philipps Manolo Fortich 8705 Bukidnon",
   "image": "https://announcement.ph/wp-content/uploads/2020/12/eJSCXmw92Srmc.jpg",
   "specialization": "Dental medicine, Family medicine, Internal medicine, Neurosciences, Obstetrics and gynecology, Occupational medicine, Ophthalmology, Orthopedic surgery, Othorhinolaryngology, Pathology, Pediatrics, Physical med & rehab, Radiology, Surgery",
   "price": 2000
 },
 {
   "hospitalName": "Dr. Uy Hospital, Inc.",
   "address": "#19 Roxas Ave., Iligan City 9200 Lanao del Norte",
   "image": "https://www.webbline.com/wp-content/uploads/2018/01/gabriela.jpg",
   "specialization": "Surgery",
   "price": 5000
 },
 {
   "hospitalName": "E & R Hospital & Pharmacy",
   "address": "Benito Labao St. Ext., Iligan City 9200 Lanao del Norte",
   "image": "https://lh3.googleusercontent.com/p/AF1QipNF0KGg7PbCA2KwoDfHWswEzkHMx63QREQhNXNh=s1600-w400",
   "specialization": "Dental Services",
   "price": 10000
 },
 {
   "hospitalName": "Gregorio T. Lluch Memorial Hospital",
   "address": "Quezon Ave. Ext., Pala-o Iligan City, 9200 Lanao del Norte",
   "image": "https://media.philstar.com/photos/2021/04/04/lung_2021-04-04_22-01-44.jpg",
   "specialization": "General (Anesthesiology, Internal medicine, Gynecology, Pediatrics, Newborn screening, Surgery, Ophthalmology, Otorhinolaryngology and head and neck surgery, Anesthesiology, Laboratory and clinical pathology, Radiology, Family medicine)",
   "price": 400
 },
 {
   "hospitalName": "Iligan Medical Center",
   "address": "San Miguel Village, Pala-o, Iligan City 9200 Lanao del Norte",
   "image": "https://www.spchcm.com/hospitals/plugin/images/NDCH/banner.jpg",
   "specialization": "General",
   "price": 2000
 },
 {
   "hospitalName": "Mercy Community Hospital, Inc.",
   "address": "Kamague, Iligan City 9200 Lanao del Norte",
   "image": "https://media.philstar.com/photos/2021/04/04/lung_2021-04-04_22-01-44.jpg",
   "specialization": "General",
   "price": 5000
 },
 {
   "hospitalName": "Mindanao Sanitarium Hospital",
   "address": "Tibanga, Iligan City 9200 Lanao del Norte",
   "image": "https://cdn-healthcare.hellohealthgroup.com/hospitals/ph/quirino-memorial-medical-center-120220211.png",
   "specialization": "Surgery, Internal Medicine, Neurology, Orthopedic, Gynecology, Pediatric Health Care, Anesthesiology",
   "price": 10000
 },
 {
   "hospitalName": "Mayor Hilarion A. Ramiro Sr. Regional Training & Teaching Hosp.",
   "address": "Mingcol, Ozamis City 7200 Misamis Occidental",
   "image": "https://www.spchcm.com/hospitals/plugin/images/NDCH/banner.jpg",
   "specialization": "Surgery",
   "price": 400
 },
 {
   "hospitalName": "Misamis Occidental Provincial Hospital (IPHO)",
   "address": "Oroquieta City 7207 Misamis Occidental",
   "image": "https://live.staticflickr.com/4141/4849809284_756e62b248_b.jpg",
   "specialization": "Internal Medicine",
   "price": 2000
 },
 {
   "hospitalName": "Misamis University Medical Center",
   "address": "Bagakay, Ozamis City 7200 Misamis Occidental",
   "image": "https://www.cnnphilippines.com/.imaging/mte/demo-cnn-new/750x450/dam/cnn/2020/3/27/Amang-Rodriguez-Memorial-Medical-Center_CNNPH.jpg/jcr:content/Amang-Rodriguez-Memorial-Medical-Center_CNNPH.jpg",
   "specialization": "Pediatrics, Anesthesiology, and surgery,",
   "price": 5000
 },
 {
   "hospitalName": "Cagayan De Oro Medical Center",
   "address": "Tiano Nacalaban St. Cagayan de Oro City 9000 Misamis Oriental",
   "image": "https://announcement.ph/wp-content/uploads/2020/12/eJSCXmw92Srmc.jpg",
   "specialization": "Ophthalmology",
   "price": 10000
 },
 {
   "hospitalName": "Cagayan De Oro Polymedic",
   "address": "Gen. Hospital A. Velez Street Cagayan de Oro City 9000 Misamis Oriental",
   "image": "https://www.webbline.com/wp-content/uploads/2018/01/gabriela.jpg",
   "specialization": "Anesthesiology",
   "price": 400
 },
 {
   "hospitalName": "Capitol University Medical City",
   "address": "Gusa, Cagayan de Oro City 9000 Misamis Oriental",
   "image": "https://lh3.googleusercontent.com/p/AF1QipNF0KGg7PbCA2KwoDfHWswEzkHMx63QREQhNXNh=s1600-w400",
   "specialization": "General",
   "price": 2000
 },
 {
   "hospitalName": "Madonna & Child Hospital",
   "address": "J. Serina St., Carmen Cagayan de Oro City 9000 Misamis Oriental",
   "image": "https://media.philstar.com/photos/2021/04/04/lung_2021-04-04_22-01-44.jpg",
   "specialization": "General",
   "price": 5000
 },
 {
   "hospitalName": "Maria Reyna Hospital",
   "address": "T.J. Hayes St., Pinikitan Cagayan de Oro City 9000 Misamis Oriental",
   "image": "https://www.spchcm.com/hospitals/plugin/images/NDCH/banner.jpg",
   "specialization": "General",
   "price": 10000
 },
 {
   "hospitalName": "Northern Mindanao Medical Center",
   "address": "Capitol Compound Cagayan de Oro City 9000 Misamis Oriental",
   "image": "https://media.philstar.com/photos/2021/04/04/lung_2021-04-04_22-01-44.jpg",
   "specialization": "Surgery, Internal Medicine, Neurology, Orthopedic, Gynecology, Pediatric Health Care, Anesthesiology",
   "price": 400
 },
 {
   "hospitalName": "Tagaloan Polymedic General Hospital",
   "address": "Sta. Cruz, Tagaloan Misamis Oriental",
   "image": "https://cdn-healthcare.hellohealthgroup.com/hospitals/ph/quirino-memorial-medical-center-120220211.png",
   "specialization": "General",
   "price": 2000
 },
 {
   "hospitalName": "Brokenshire Integrated Health Ministries, Inc.",
   "address": "Madapo Hill, 8000 Davao City",
   "image": "https://www.spchcm.com/hospitals/plugin/images/NDCH/banner.jpg",
   "specialization": "Dental medicine, Family medicine, Internal medicine, Neurosciences, Obstetrics and gynecology, Occupational medicine, Ophthalmology, Orthopedic surgery, Othorhinolaryngology, Pathology, Pediatrics, Physical med & rehab, Radiology, Surgery",
   "price": 5000
 },
 {
   "hospitalName": "Davao Doctors Hospital",
   "address": "#118 E. Quirino Avenue 8000 Davao City",
   "image": "https://live.staticflickr.com/4141/4849809284_756e62b248_b.jpg",
   "specialization": "Surgery",
   "price": 10000
 },
 {
   "hospitalName": "Davao Medical Center",
   "address": "J.P. Laurel St., Bajada 8000 Davao City",
   "image": "https://www.cnnphilippines.com/.imaging/mte/demo-cnn-new/750x450/dam/cnn/2020/3/27/Amang-Rodriguez-Memorial-Medical-Center_CNNPH.jpg/jcr:content/Amang-Rodriguez-Memorial-Medical-Center_CNNPH.jpg",
   "specialization": "Dental Services",
   "price": 400
 },
 {
   "hospitalName": "Davao Medical School Foundation Hospital",
   "address": "Bajada, Davao City",
   "image": "https://announcement.ph/wp-content/uploads/2020/12/eJSCXmw92Srmc.jpg",
   "specialization": "General (Anesthesiology, Internal medicine, Gynecology, Pediatrics, Newborn screening, Surgery, Ophthalmology, Otorhinolaryngology and head and neck surgery, Anesthesiology, Laboratory and clinical pathology, Radiology, Family medicine)",
   "price": 2000
 },
 {
   "hospitalName": "Medical Mission Group Hospital",
   "address": "3rd Avenue, Leon Garcia St. Sta. Ana, 8000 Davao City",
   "image": "https://www.webbline.com/wp-content/uploads/2018/01/gabriela.jpg",
   "specialization": "General",
   "price": 5000
 },
 {
   "hospitalName": "Ricardo Limso Medical Center, Inc.",
   "address": "Ilustre St., Davao City 8000",
   "image": "https://lh3.googleusercontent.com/p/AF1QipNF0KGg7PbCA2KwoDfHWswEzkHMx63QREQhNXNh=s1600-w400",
   "specialization": "General",
   "price": 10000
 },
 {
   "hospitalName": "San Pedro Hosp. of Davao City, Inc.",
   "address": "C. Guzman St. 8000 Davao City",
   "image": "https://media.philstar.com/photos/2021/04/04/lung_2021-04-04_22-01-44.jpg",
   "specialization": "Surgery, Internal Medicine, Neurology, Orthopedic, Gynecology, Pediatric Health Care, Anesthesiology",
   "price": 400
 },
 {
   "hospitalName": "Bishop Joseph Regan Memorial Hospital",
   "address": "Christ the King Road, Tagum 8100 Davao del Norte",
   "image": "https://www.spchcm.com/hospitals/plugin/images/NDCH/banner.jpg",
   "specialization": "Surgery",
   "price": 2000
 },
 {
   "hospitalName": "Clinica Rivera Medical Center",
   "address": "#7302 Brgy. San Francisco Panabo City 8105 Davao del Norte",
   "image": "https://media.philstar.com/photos/2021/04/04/lung_2021-04-04_22-01-44.jpg",
   "specialization": "Internal Medicine",
   "price": 5000
 },
 {
   "hospitalName": "Davao Regional Hospital",
   "address": "Apokon, Tagum City 8100 Davao del Norte",
   "image": "https://cdn-healthcare.hellohealthgroup.com/hospitals/ph/quirino-memorial-medical-center-120220211.png",
   "specialization": "General",
   "price": 10000
 },
 {
   "hospitalName": "Medical Mission Group Hospital & Health Services Cooperative of Tagum",
   "address": "Visayan Village, Tagum City 8100 Davao Del Norte",
   "image": "https://www.spchcm.com/hospitals/plugin/images/NDCH/banner.jpg",
   "specialization": "General",
   "price": 400
 },
 {
   "hospitalName": "Tagum Doctors Hospital, Inc.",
   "address": "Highway 54, RABE Subd. Tagum City 8100 Davao del Norte",
   "image": "https://live.staticflickr.com/4141/4849809284_756e62b248_b.jpg",
   "specialization": "Dental medicine, Family medicine, Internal medicine, Neurosciences, Obstetrics and gynecology, Occupational medicine, Ophthalmology, Orthopedic surgery, Othorhinolaryngology, Pathology, Pediatrics, Physical med & rehab, Radiology, Surgery",
   "price": 2000
 },
 {
   "hospitalName": "Digos Doctor's Hospital, Inc.",
   "address": "McArthur Highway, Digos City 8002 Davao del Sur",
   "image": "https://www.cnnphilippines.com/.imaging/mte/demo-cnn-new/750x450/dam/cnn/2020/3/27/Amang-Rodriguez-Memorial-Medical-Center_CNNPH.jpg/jcr:content/Amang-Rodriguez-Memorial-Medical-Center_CNNPH.jpg",
   "specialization": "Surgery",
   "price": 5000
 },
 {
   "hospitalName": "Gonzales Maranan Clinic & Hospital, Inc.",
   "address": "Quezon Avenue, Digos 8002 Davao del Sur",
   "image": "https://announcement.ph/wp-content/uploads/2020/12/eJSCXmw92Srmc.jpg",
   "specialization": "Dental Services",
   "price": 10000
 },
 {
   "hospitalName": "Davao Oriental Provincial Hospital",
   "address": "Mati, 8200 Davao Oriental",
   "image": "https://www.webbline.com/wp-content/uploads/2018/01/gabriela.jpg",
   "specialization": "General (Anesthesiology, Internal medicine, Gynecology, Pediatrics, Newborn screening, Surgery, Ophthalmology, Otorhinolaryngology and head and neck surgery, Anesthesiology, Laboratory and clinical pathology, Radiology, Family medicine)",
   "price": 400
 },
 {
   "hospitalName": "General Santos Doctors Hospital",
   "address": "National Highway 9400 General Santos City",
   "image": "https://lh3.googleusercontent.com/p/AF1QipNF0KGg7PbCA2KwoDfHWswEzkHMx63QREQhNXNh=s1600-w400",
   "specialization": "General",
   "price": 2000
 },
 {
   "hospitalName": "Mindanao Medical Center, Inc.",
   "address": "Cannery Road, City Heights 9400 General Santos City",
   "image": "https://media.philstar.com/photos/2021/04/04/lung_2021-04-04_22-01-44.jpg",
   "specialization": "General",
   "price": 5000
 },
 {
   "hospitalName": "Socsargen County Hospital",
   "address": "Bula, Lagao Road 9400 General Santos City",
   "image": "https://www.spchcm.com/hospitals/plugin/images/NDCH/banner.jpg",
   "specialization": "Surgery, Internal Medicine, Neurology, Orthopedic, Gynecology, Pediatric Health Care, Anesthesiology",
   "price": 10000
 },
 {
   "hospitalName": "Saint Elizabeth Hospital, Inc.",
   "address": "National Highway 9400 General Santos City",
   "image": "https://media.philstar.com/photos/2021/04/04/lung_2021-04-04_22-01-44.jpg",
   "specialization": "Surgery",
   "price": 400
 },
 {
   "hospitalName": "Cotabato Medical Specialist Hospital",
   "address": "Quezon Ave., Cotabato City 9600 Maguindanao",
   "image": "https://cdn-healthcare.hellohealthgroup.com/hospitals/ph/quirino-memorial-medical-center-120220211.png",
   "specialization": "Internal Medicine",
   "price": 2000
 },
 {
   "hospitalName": "Allah Valley Medical Specialist Center, Inc.",
   "address": "Purok Villegas, Gensan Drive Koronadal City, South Cotabao",
   "image": "https://www.spchcm.com/hospitals/plugin/images/NDCH/banner.jpg",
   "specialization": "Pediatrics, Anesthesiology, and surgery,",
   "price": 5000
 },
 {
   "hospitalName": "Howard Hubbard Memorial Hospital",
   "address": "Cannery Site, Polomolok 9504 South Cotabato",
   "image": "https://live.staticflickr.com/4141/4849809284_756e62b248_b.jpg",
   "specialization": "Ophthalmology",
   "price": 10000
 },
 {
   "hospitalName": "South Cotabato Provincial Hospital",
   "address": "Aguinaldo St., Koronadal City 9506 South Cotabato",
   "image": "https://www.cnnphilippines.com/.imaging/mte/demo-cnn-new/750x450/dam/cnn/2020/3/27/Amang-Rodriguez-Memorial-Medical-Center_CNNPH.jpg/jcr:content/Amang-Rodriguez-Memorial-Medical-Center_CNNPH.jpg",
   "specialization": "Anesthesiology",
   "price": 400
 },
 {
   "hospitalName": "Agusan Del Norte Provincial Hospital",
   "address": "Libertad, Butuan City 8600 Agusan del Norte",
   "image": "https://announcement.ph/wp-content/uploads/2020/12/eJSCXmw92Srmc.jpg",
   "specialization": "General",
   "price": 2000
 },
 {
   "hospitalName": "Butuan Doctor's Hospital, Inc.",
   "address": "J.C. Aquino Ave., Butuan City 8600 Agusan del Norte",
   "image": "https://www.webbline.com/wp-content/uploads/2018/01/gabriela.jpg",
   "specialization": "Internal Medicine",
   "price": 5000
 },
 {
   "hospitalName": "Butuan Medical Center",
   "address": "Km. 5, Baam, Butuan City 8600 Agusan del Norte",
   "image": "https://lh3.googleusercontent.com/p/AF1QipNF0KGg7PbCA2KwoDfHWswEzkHMx63QREQhNXNh=s1600-w400",
   "specialization": "General",
   "price": 10000
 },
 {
   "hospitalName": "Manuel J. Santos Hospital",
   "address": "Montilla Boulevard, Butuan City 8600 Agusan del Norte",
   "image": "https://media.philstar.com/photos/2021/04/04/lung_2021-04-04_22-01-44.jpg",
   "specialization": "Dental medicine, Family medicine, Internal medicine, Neurosciences, Obstetrics and gynecology, Occupational medicine, Ophthalmology, Orthopedic surgery, Othorhinolaryngology, Pathology, Pediatrics, Physical med & rehab, Radiology, Surgery",
   "price": 2000
 },
 {
   "hospitalName": "D.O. Plaza Memorial Hospital",
   "address": "Patin-Ay, Prosperidad 8400 Agusan del Sur",
   "image": "https://www.spchcm.com/hospitals/plugin/images/NDCH/banner.jpg",
   "specialization": "Surgery",
   "price": 5000
 },
 {
   "hospitalName": "Caraga Regional Hospital",
   "address": "Rizal St., Surigao City 8400 Surigao del Norte",
   "image": "https://media.philstar.com/photos/2021/04/04/lung_2021-04-04_22-01-44.jpg",
   "specialization": "Dental Services",
   "price": 10000
 },
 {
   "hospitalName": "Andres Soriano Memorial Hospital Cooperative",
   "address": "Tabon, Bislig City 8311 Surigao del Sur",
   "image": "https://cdn-healthcare.hellohealthgroup.com/hospitals/ph/quirino-memorial-medical-center-120220211.png",
   "specialization": "General (Anesthesiology, Internal medicine, Gynecology, Pediatrics, Newborn screening, Surgery, Ophthalmology, Otorhinolaryngology and head and neck surgery, Anesthesiology, Laboratory and clinical pathology, Radiology, Family medicine)",
   "price": 2000
 },
 {
   "hospitalName": "Cotabato Medical Specialist Hospital",
   "address": "Quezon Avenue, Cotabato City 9600 Maguindanao",
   "image": "https://www.spchcm.com/hospitals/plugin/images/NDCH/banner.jpg",
   "specialization": "General",
   "price": 5000
 },
 {
   "hospitalName": "Cotabato Regional Hospital & Medical Center",
   "address": "Rosary Heights, Sinsuat Ave. Cotabato City, 9600 Maguindanao",
   "image": "https://live.staticflickr.com/4141/4849809284_756e62b248_b.jpg",
   "specialization": "General",
   "price": 10000
 },
 {
   "hospitalName": "Notre Dame Hospital & School of Midwifery, Inc.",
   "address": "Rosary Heights, Cotabato City 9600 Maguindanao",
   "image": "https://www.cnnphilippines.com/.imaging/mte/demo-cnn-new/750x450/dam/cnn/2020/3/27/Amang-Rodriguez-Memorial-Medical-Center_CNNPH.jpg/jcr:content/Amang-Rodriguez-Memorial-Medical-Center_CNNPH.jpg",
   "specialization": "Surgery, Internal Medicine, Neurology, Orthopedic, Gynecology, Pediatric Health Care, Anesthesiology",
   "price": 10000
 }
]